\relax 
\providecommand\hyper@newdestlabel[2]{}
\providecommand\HyperFirstAtBeginDocument{\AtBeginDocument}
\HyperFirstAtBeginDocument{\ifx\hyper@anchor\@undefined
\global\let\oldcontentsline\contentsline
\gdef\contentsline#1#2#3#4{\oldcontentsline{#1}{#2}{#3}}
\global\let\oldnewlabel\newlabel
\gdef\newlabel#1#2{\newlabelxx{#1}#2}
\gdef\newlabelxx#1#2#3#4#5#6{\oldnewlabel{#1}{{#2}{#3}}}
\AtEndDocument{\ifx\hyper@anchor\@undefined
\let\contentsline\oldcontentsline
\let\newlabel\oldnewlabel
\fi}
\fi}
\global\let\hyper@last\relax 
\gdef\HyperFirstAtBeginDocument#1{#1}
\providecommand\HyField@AuxAddToFields[1]{}
\providecommand\HyField@AuxAddToCoFields[2]{}
\citation{6_abs.gov.au_2007}
\@writefile{toc}{\contentsline {section}{List of Figures}{2}{section*.2}}
\citation{1_petnet.io_2015}
\citation{kantar_wordpanel}
\citation{4_feed_and_go_2015}
\citation{2_australia_2015}
\@writefile{toc}{\contentsline {section}{\numberline {1}Introduction}{3}{section.1}}
\@writefile{toc}{\contentsline {section}{\numberline {2}Explanation of Product and Design Concept}{4}{section.2}}
\@writefile{lof}{\contentsline {figure}{\numberline {2.1}{\ignorespaces \textit  {\relax \fontsize  {10.95}{13.6}\selectfont  \abovedisplayskip 11\p@ plus3\p@ minus6\p@ \abovedisplayshortskip \z@ plus3\p@ \belowdisplayshortskip 6.5\p@ plus3.5\p@ minus3\p@ \def \leftmargin \leftmargini \topsep \z@ \parsep \parskip \itemsep \z@ {\leftmargin \leftmargini \topsep 9\p@ plus3\p@ minus5\p@ \parsep 4.5\p@ plus2\p@ minus\p@ \itemsep \parsep }\belowdisplayskip \abovedisplayskip {Block Diagram of all the subsystems in the design for this product.}}\relax }}{5}{figure.caption.3}}
\providecommand*\caption@xref[2]{\@setref\relax\@undefined{#1}}
\newlabel{OverallArchitecture}{{2.1}{5}{\textit {\small {Block Diagram of all the subsystems in the design for this product.}}\relax }{figure.caption.3}{}}
\citation{5_smith_2014}
\citation{7_kb.rspca.org.au_2014}
\citation{6_abs.gov.au_2007}
\@writefile{toc}{\contentsline {section}{\numberline {3}Market analysis}{6}{section.3}}
\@writefile{lof}{\contentsline {figure}{\numberline {3.1}{\ignorespaces \textit  {\relax \fontsize  {10.95}{13.6}\selectfont  \abovedisplayskip 11\p@ plus3\p@ minus6\p@ \abovedisplayshortskip \z@ plus3\p@ \belowdisplayshortskip 6.5\p@ plus3.5\p@ minus3\p@ \def \leftmargin \leftmargini \topsep \z@ \parsep \parskip \itemsep \z@ {\leftmargin \leftmargini \topsep 9\p@ plus3\p@ minus5\p@ \parsep 4.5\p@ plus2\p@ minus\p@ \itemsep \parsep }\belowdisplayskip \abovedisplayskip {A breakdown of pet owner's feeding schedules.}}\relax }}{7}{figure.caption.4}}
\newlabel{FeedSchedule1}{{3.1}{7}{\textit {\small {A breakdown of pet owner's feeding schedules.}}\relax }{figure.caption.4}{}}
\@writefile{lof}{\contentsline {figure}{\numberline {3.2}{\ignorespaces \textit  {\relax \fontsize  {10.95}{13.6}\selectfont  \abovedisplayskip 11\p@ plus3\p@ minus6\p@ \abovedisplayshortskip \z@ plus3\p@ \belowdisplayshortskip 6.5\p@ plus3.5\p@ minus3\p@ \def \leftmargin \leftmargini \topsep \z@ \parsep \parskip \itemsep \z@ {\leftmargin \leftmargini \topsep 9\p@ plus3\p@ minus5\p@ \parsep 4.5\p@ plus2\p@ minus\p@ \itemsep \parsep }\belowdisplayskip \abovedisplayskip {A breakdown of pet owner's travel habits.}}\relax }}{8}{figure.caption.5}}
\newlabel{TravelHabits1}{{3.2}{8}{\textit {\small {A breakdown of pet owner's travel habits.}}\relax }{figure.caption.5}{}}
\@writefile{lof}{\contentsline {figure}{\numberline {3.3}{\ignorespaces \textit  {\relax \fontsize  {10.95}{13.6}\selectfont  \abovedisplayskip 11\p@ plus3\p@ minus6\p@ \abovedisplayshortskip \z@ plus3\p@ \belowdisplayshortskip 6.5\p@ plus3.5\p@ minus3\p@ \def \leftmargin \leftmargini \topsep \z@ \parsep \parskip \itemsep \z@ {\leftmargin \leftmargini \topsep 9\p@ plus3\p@ minus5\p@ \parsep 4.5\p@ plus2\p@ minus\p@ \itemsep \parsep }\belowdisplayskip \abovedisplayskip {Detailed look at pricing.}}\relax }}{8}{figure.caption.6}}
\newlabel{CostSelection1}{{3.3}{8}{\textit {\small {Detailed look at pricing.}}\relax }{figure.caption.6}{}}
\citation{1_taubman_2015}
\@writefile{lof}{\contentsline {figure}{\numberline {3.4}{\ignorespaces \textit  {\relax \fontsize  {10.95}{13.6}\selectfont  \abovedisplayskip 11\p@ plus3\p@ minus6\p@ \abovedisplayshortskip \z@ plus3\p@ \belowdisplayshortskip 6.5\p@ plus3.5\p@ minus3\p@ \def \leftmargin \leftmargini \topsep \z@ \parsep \parskip \itemsep \z@ {\leftmargin \leftmargini \topsep 9\p@ plus3\p@ minus5\p@ \parsep 4.5\p@ plus2\p@ minus\p@ \itemsep \parsep }\belowdisplayskip \abovedisplayskip {Pet owner attitudes toward pet diet.}}\relax }}{9}{figure.caption.7}}
\newlabel{DietImp1}{{3.4}{9}{\textit {\small {Pet owner attitudes toward pet diet.}}\relax }{figure.caption.7}{}}
\@writefile{toc}{\contentsline {section}{\numberline {4}Manufacturing Cost Estimates}{9}{section.4}}
\@writefile{lot}{\contentsline {table}{\numberline {4.1}{\ignorespaces MCU Components Costs\relax }}{10}{table.caption.8}}
\newlabel{table: MSP430_COST}{{4.1}{10}{MCU Components Costs\relax }{table.caption.8}{}}
\@writefile{lot}{\contentsline {table}{\numberline {4.2}{\ignorespaces Internet Subsystem Components Costs\relax }}{10}{table.caption.9}}
\newlabel{table: WIFI_COST}{{4.2}{10}{Internet Subsystem Components Costs\relax }{table.caption.9}{}}
\citation{1_taubman_2015}
\citation{1_taubman_2015}
\@writefile{toc}{\contentsline {section}{\numberline {5}Business Plan}{11}{section.5}}
\@writefile{lot}{\contentsline {table}{\numberline {5.1}{\ignorespaces Projected business plan\relax }}{11}{table.caption.10}}
\newlabel{table: BUSINESS_PLAN}{{5.1}{11}{Projected business plan\relax }{table.caption.10}{}}
\citation{7_kb.rspca.org.au_2014}
\citation{8_abs.gov.au_2014}
\@writefile{toc}{\contentsline {section}{\numberline {6}Development Plan}{12}{section.6}}
\@writefile{lof}{\contentsline {figure}{\numberline {6.1}{\ignorespaces \textit  {\relax \fontsize  {10.95}{13.6}\selectfont  \abovedisplayskip 11\p@ plus3\p@ minus6\p@ \abovedisplayshortskip \z@ plus3\p@ \belowdisplayshortskip 6.5\p@ plus3.5\p@ minus3\p@ \def \leftmargin \leftmargini \topsep \z@ \parsep \parskip \itemsep \z@ {\leftmargin \leftmargini \topsep 9\p@ plus3\p@ minus5\p@ \parsep 4.5\p@ plus2\p@ minus\p@ \itemsep \parsep }\belowdisplayskip \abovedisplayskip {A Gantt Chart depicting the planned workflow of the project}}\relax }}{13}{figure.caption.11}}
\newlabel{GANTT}{{6.1}{13}{\textit {\small {A Gantt Chart depicting the planned workflow of the project}}\relax }{figure.caption.11}{}}
\@writefile{toc}{\contentsline {section}{\numberline {7}Summary}{15}{section.7}}
\bibstyle{ieeetr}
\bibdata{Report}
\@writefile{toc}{\contentsline {section}{References}{17}{section*.12}}
\@writefile{toc}{\contentsline {section}{Appendix A: Requirements}{17}{section*.12}}
\@writefile{toc}{\contentsline {section}{Appendix B: Survey}{17}{Item.19}}
\@writefile{toc}{\contentsline {section}{Appendix C: Bill of Materials}{26}{section*.14}}
