G04 ================== begin FILE IDENTIFICATION RECORD ==================*
G04 Layout Name:  CC3100BOOST_BRD_Rev4p0_20140605_16p3.brd*
G04 Film Name:    L2P.gbr*
G04 File Format:  Gerber RS274X*
G04 File Origin:  Cadence Allegro 16.3-S057*
G04 Origin Date:  Thu Jun 05 10:35:16 2014*
G04 *
G04 Layer:  VIA CLASS/GND*
G04 Layer:  PIN/GND*
G04 Layer:  ETCH/GND*
G04 Layer:  DRAWING FORMAT/L2*
G04 Layer:  DRAWING FORMAT/FILM_LABEL_OUTLINE*
G04 *
G04 Offset:    (0.0000 0.0000)*
G04 Mirror:    No*
G04 Mode:      Positive*
G04 Rotation:  0*
G04 FullContactRelief:  No*
G04 UndefLineWidth:     6.0000*
G04 ================== end FILE IDENTIFICATION RECORD ====================*
%FSLAX25Y25*MOIN*%
%IR0*IPPOS*OFA0.00000B0.00000*MIA0B0*SFA1.00000B1.00000*%
%ADD12C,.03*%
%ADD10C,.024*%
%ADD11C,.058*%
%ADD13O,.061024X.03937*%
%ADD14O,.037402X.049213*%
%ADD15C,.015*%
%ADD16C,.0199*%
%ADD17C,.006*%
%ADD18C,.04*%
%ADD21C,.046*%
%ADD19C,.074*%
%ADD20C,.075056*%
%ADD22O,.053402X.065213*%
G75*
%LPD*%
G75*
G36*
G01X197900Y3000D02*
X197000Y2100D01*
X7500D01*
X7400Y2000D01*
X4500D01*
X2100Y4400D01*
Y166500D01*
X3500Y167900D01*
X79020D01*
Y149465D01*
X102642D01*
Y167900D01*
X197000D01*
X197900Y167000D01*
Y3000D01*
G37*
%LPC*%
G75*
G36*
G01X121482Y49068D02*
G03X120982Y48735I-104J-386D01*
G02X117062Y48506I-1982J265D01*
G03X116479Y48756I-388J-99D01*
G02X117438Y50994I-979J1744D01*
G03X118021Y50744I388J99D01*
G02X119518Y50932I979J-1744D01*
G03X120018Y51265I104J386D01*
G02X121482Y49068I1982J-265D01*
G37*
G36*
G01X54544Y66312D02*
G02X53246Y64677I956J-2092D01*
G03X52712Y65131I-392J80D01*
G02X51131Y68801I-712J1869D01*
G03X51214Y69468I-174J360D01*
G02X53369Y69199I1286J1532D01*
G03X53286Y68532I174J-360D01*
G02X53982Y66730I-1286J-1532D01*
G03X54544Y66312I396J-54D01*
G37*
G36*
G01X144329Y115487D02*
G02X142621Y114846I-229J-1987D01*
G03X142371Y115513I-296J269D01*
G02X144079Y116154I229J1987D01*
G03X144329Y115487I296J-269D01*
G37*
G36*
G01X140411Y125411D02*
G02X139089Y124089I589J-1911D01*
G03X138589Y124589I-382J118D01*
G02X139911Y125911I-589J1911D01*
G03X140411Y125411I382J-118D01*
G37*
G36*
G01X66083Y24229D02*
G03X65417I-333J-221D01*
G02Y26771I-1917J1271D01*
G03X66083I333J221D01*
G02Y24229I1917J-1271D01*
G37*
G36*
G01X146083Y32229D02*
G03X145417I-333J-221D01*
G02Y34771I-1917J1271D01*
G03X146083I333J221D01*
G02Y32229I1917J-1271D01*
G37*
G36*
G01X82147Y67175D02*
X82213Y67184D01*
X82705Y67676D01*
Y72244D01*
X86205Y75744D01*
Y76744D01*
X88256Y78795D01*
X97244D01*
X97523Y78516D01*
X97646Y78567D01*
G02X97167Y74705I854J-2067D01*
G01X96256D01*
X95756Y75205D01*
X89795D01*
Y74256D01*
X86295Y70756D01*
Y66189D01*
X84752Y64646D01*
X84743Y64579D01*
G02X82147Y67175I-2278J318D01*
G37*
G36*
G01X81491Y71667D02*
G03Y71133I298J-267D01*
G02X78509I-1491J-1333D01*
G03Y71667I-298J267D01*
G02X81491I1491J1333D01*
G37*
G36*
G01X138870Y82445D02*
G03X139524Y82350I360J175D01*
G02X139201Y80126I1476J-1350D01*
G03X138546Y80221I-360J-175D01*
G02X138870Y82445I-1476J1350D01*
G37*
G36*
G01X98888Y86298D02*
X98825Y86287D01*
X97744Y85205D01*
X81918D01*
G03X81598Y84565I0J-400D01*
G02X78034Y83731I-1598J-1202D01*
G03X77641Y84205I-393J74D01*
G01X76438D01*
G02Y87795I-1438J1795D01*
G01X78256D01*
X79256Y88795D01*
X96256D01*
X96288Y88826D01*
G02X96371Y89183I2212J-326D01*
G03X95990Y89705I-381J122D01*
G01X78256D01*
X76249Y91713D01*
X76182Y91722D01*
G02X78778Y94318I318J2278D01*
G01X78787Y94251D01*
X79369Y93669D01*
X79591Y93891D01*
X79563Y94002D01*
G02X83384Y93829I1937J498D01*
G03X83761Y93295I377J-134D01*
G01X96533D01*
G02X99869Y90880I1967J-795D01*
G03X99880Y90259I258J-306D01*
G02X98888Y86298I-1380J-1759D01*
G37*
G36*
G01X169650Y91369D02*
G03X169800Y90786I330J-226D01*
G02X167250Y90131I-900J-1786D01*
G03X167100Y90714I-330J226D01*
G02X169650Y91369I900J1786D01*
G37*
G36*
G01X89615Y97990D02*
G03X89587Y97717I131J-151D01*
G02X86689Y98010I-1587J-1217D01*
G03X86716Y98283I-131J151D01*
G02X86322Y99227I1587J1217D01*
G03X85863Y99568I-396J-55D01*
G02X87799Y101889I-363J2271D01*
G03X88217Y101498I400J9D01*
G02X89615Y97990I87J-1998D01*
G37*
G36*
G01X82045Y108796D02*
G03Y108204I269J-296D01*
G02X78955I-1545J-1704D01*
G03Y108796I-269J296D01*
G02X82045I1545J1704D01*
G37*
G36*
G01X33987Y119486D02*
G03X34066Y120106I-208J342D01*
G02X36934I1434J1394D01*
G03X37013Y119486I287J-279D01*
G02X37698Y118908I-1513J-2486D01*
G03X38302I302J262D01*
G02X42698I2198J-1908D01*
G03X43302I302J262D01*
G02X47408Y114802I2198J-1908D01*
G03Y114198I262J-302D01*
G02X43302Y110092I-1908J-2198D01*
G03X42698I-302J-262D01*
G02X38302I-2198J1908D01*
G03X37698I-302J-262D01*
G02X33592Y114198I-2198J1908D01*
G03Y114802I-262J302D01*
G02X33987Y119486I1908J2198D01*
G37*
G36*
G01X68042Y110631D02*
G03X67458I-292J-274D01*
G02Y113369I-1458J1369D01*
G03X68042I292J274D01*
G02Y110631I1458J-1369D01*
G37*
G36*
G01X156150Y114131D02*
G03X156733Y114047I330J226D01*
G02X156350Y111369I1267J-1547D01*
G03X155767Y111453I-330J-226D01*
G02X156150Y114131I-1267J1547D01*
G37*
G36*
G01X140901Y65120D02*
G02X137600Y65928I-1901J-620D01*
G03X137367Y66612I-280J286D01*
G02X138998Y67169I232J1987D01*
G03X139231Y66486I280J-286D01*
G02X139682Y66380I-232J-1987D01*
G03X140199Y66880I136J376D01*
G02X141418Y65620I1901J620D01*
G03X140901Y65120I-136J-376D01*
G37*
G36*
G01X34502Y65067D02*
G03X33918Y64834I-200J-347D01*
G02X32998Y67133I-1918J566D01*
G03X33582Y67366I200J347D01*
G02X34502Y65067I1918J-566D01*
G37*
G36*
G01X150122Y57469D02*
G03X150076Y56851I229J-328D01*
G02X146984Y56427I-1376J-1451D01*
G03X146773Y57009I-343J205D01*
G02X150122Y57469I1227J3491D01*
G37*
G54D18*
X152500Y47000D03*
X38700Y78300D03*
X136000Y48000D03*
X96000Y42800D03*
X113000Y56000D03*
X160000Y137500D03*
X161000Y123500D03*
X162500Y106000D03*
X170390Y103110D03*
X165000Y73500D03*
X163000Y55000D03*
X162000Y48000D03*
X159246Y33649D03*
X157000Y38000D03*
X159500Y42900D03*
X156500Y22000D03*
X162000Y16000D03*
X149350Y148650D03*
X151500Y127000D03*
X145000Y95000D03*
X137500Y91500D03*
X151500Y106000D03*
X148565Y82969D03*
X137500Y73000D03*
X149000Y87500D03*
X132040Y54960D03*
X131250Y152750D03*
X111500Y112500D03*
X125953Y110547D03*
X130500Y66500D03*
X108000Y128800D03*
Y60561D03*
X102201Y56289D03*
X86500Y117000D03*
X79650Y122000D03*
X86000Y58000D03*
X47000Y101000D03*
X45526Y90344D03*
X47303Y23803D03*
X52000Y43500D03*
X66176Y18800D03*
X35000Y126500D03*
X28700Y104500D03*
X44000Y85000D03*
X34500Y50000D03*
X31000Y57000D03*
X43500Y33000D03*
X102000Y38500D03*
X35600Y71200D03*
X30000Y75400D03*
G54D21*
X69000Y50500D03*
Y45000D03*
X51831Y60650D03*
X63000Y50500D03*
X63500Y45000D03*
G54D19*
X158000Y60500D03*
X180000Y135000D03*
X190000D03*
Y125000D03*
X180000D03*
X190000Y115000D03*
X180000D03*
X190000Y105000D03*
X180000D03*
X190000Y95000D03*
X180000D03*
X190000Y85000D03*
X180000D03*
X190000Y75000D03*
X180000D03*
X190000Y65000D03*
X180000D03*
X190000Y55000D03*
X180000D03*
X190000Y45000D03*
X180000D03*
X150500Y142000D03*
X140500D03*
X130500D03*
X120500D03*
X94500Y27500D03*
Y17500D03*
Y7500D03*
X57000Y27000D03*
Y37000D03*
X10000Y135000D03*
X20000D03*
Y125000D03*
X10000D03*
X20000Y115000D03*
X10000D03*
X20000Y105000D03*
X10000D03*
X20000Y95000D03*
X10000D03*
X20000Y85000D03*
X10000D03*
X20000Y75000D03*
X10000D03*
X20000Y65000D03*
X10000D03*
X20000Y55000D03*
X10000D03*
X20000Y45000D03*
X10000D03*
G54D20*
X186843Y155700D03*
X167157D03*
X28843D03*
X9157D03*
X17100Y30243D03*
Y10557D03*
G54D22*
X183661Y12376D03*
Y32061D03*
%LPD*%
G75*
G54D10*
X7000Y14500D03*
Y24500D03*
X13000Y145000D03*
X23000D03*
Y165000D03*
X13000D03*
X27000Y14500D03*
X44750Y9500D03*
X27000Y24500D03*
X41549Y27000D03*
X33500Y37600D03*
X30000Y44000D03*
X44500Y62500D03*
X39800Y54000D03*
Y59500D03*
Y64500D03*
X44500Y80500D03*
Y76000D03*
X39500Y81500D03*
X39900Y75500D03*
X44500Y67000D03*
Y71500D03*
X41000Y88000D03*
X39800Y70000D03*
X41000Y94000D03*
X35000D03*
X43000Y148500D03*
X40000Y140500D03*
X43000Y158500D03*
X49500Y47000D03*
X55000Y82500D03*
X50500Y82000D03*
X55500Y87000D03*
X49100Y87500D03*
X52500Y76000D03*
X56051Y78848D03*
X52500Y90500D03*
X54500Y98500D03*
X59000Y91000D03*
X59235Y101235D03*
X52500Y95000D03*
X49000Y93000D03*
X52000Y101000D03*
X57000Y95000D03*
X48500Y97500D03*
X58500Y105000D03*
X45964Y94012D03*
X46500Y131500D03*
X57300Y130200D03*
Y126000D03*
X52000Y117000D03*
X61900Y121600D03*
X57300D03*
X59000Y110500D03*
X60000Y148500D03*
X46500Y136000D03*
X63100Y141900D03*
X59300Y141800D03*
X66800D03*
X57300Y138600D03*
Y134400D03*
X60000Y158500D03*
X78500Y3500D03*
X79000Y48000D03*
X85100Y127800D03*
X71600Y126200D03*
X81100Y127800D03*
X75500Y126500D03*
X66800Y121600D03*
X71000Y122000D03*
X77100Y151700D03*
X77300Y147200D03*
X81900Y147100D03*
X86900Y147200D03*
X70400Y136800D03*
X74100D03*
X77500Y135900D03*
X81500D03*
X85500D03*
X70500Y140900D03*
X77100Y156000D03*
X77020Y160300D03*
X106000Y6500D03*
X101500D03*
X108400Y33000D03*
X101500Y26500D03*
X106500D03*
X93500Y37000D03*
X93800Y51200D03*
X89750Y51250D03*
X105500Y51000D03*
X109500D03*
X106500Y84500D03*
X102500D03*
X98500Y80500D03*
X106500D03*
X102500D03*
X98500Y76500D03*
X106500D03*
X102500D03*
X98500Y72500D03*
X106500D03*
X102500D03*
X98500Y84500D03*
X101000Y108500D03*
X94540Y108944D03*
X98500Y96500D03*
X102500D03*
X106500D03*
X98500Y92500D03*
X106500D03*
X102500D03*
X98500Y88500D03*
X106500D03*
X102500D03*
X91500Y123500D03*
X103500Y124500D03*
X102000Y128000D03*
X110000Y121500D03*
X93100Y127800D03*
X89100D03*
X93700Y116600D03*
X93600Y112100D03*
X101800Y116500D03*
Y111800D03*
X103405Y131000D03*
X109864Y117000D03*
X89500Y135900D03*
X109500Y133000D03*
X107000Y140000D03*
X105500Y151500D03*
X103405Y146000D03*
X93500Y140700D03*
X91605Y146000D03*
X93500Y135900D03*
X101800Y135800D03*
X102000Y140900D03*
X105500Y158000D03*
Y163500D03*
X112000Y6500D03*
Y12000D03*
Y18000D03*
X112500Y26500D03*
X112200Y33000D03*
X122500Y84500D03*
X118500D03*
X114500D03*
X110500D03*
X122500Y80500D03*
X118500D03*
X114500D03*
X110500D03*
X122500Y76500D03*
X118500D03*
X114500D03*
X110500D03*
X122500Y72500D03*
X118500D03*
X114500D03*
X110500D03*
Y96500D03*
X114500D03*
X118500D03*
X122500D03*
Y92500D03*
X118500D03*
X114500D03*
X110500D03*
X122500Y88500D03*
X118500D03*
X114500D03*
X110500D03*
X113500Y120500D03*
X113000Y123500D03*
X117600Y128800D03*
X115000Y117500D03*
X120100Y116700D03*
X129000Y127800D03*
X120500Y152000D03*
X130200Y136800D03*
X125000Y147500D03*
X114000Y138000D03*
X111000Y145000D03*
X112500Y151500D03*
X120000Y165500D03*
X120500Y159000D03*
X112000Y158000D03*
Y163500D03*
X139000Y31500D03*
X142000Y51000D03*
X145500Y82961D03*
X149000Y71497D03*
X142500Y86000D03*
X148631Y95131D03*
X142471Y89450D03*
X135000Y123900D03*
X137000Y137200D03*
X158000Y53000D03*
X155500Y69300D03*
Y72500D03*
X160900Y87000D03*
X161000Y92000D03*
X154750Y121250D03*
X172000Y145500D03*
Y164000D03*
X182000Y145500D03*
X188000Y146000D03*
X181500Y164000D03*
G54D11*
X20000Y125000D03*
X190000Y135000D03*
G54D12*
X51500Y54500D03*
X55500Y50500D03*
X60500Y70500D03*
X81500Y11000D03*
X86500D03*
X76000D03*
X71000D03*
X82465Y64897D03*
X75000Y86000D03*
X76500Y94000D03*
X78500Y101000D03*
X86500Y111759D03*
X161000Y30000D03*
X160777Y25513D03*
X165555Y29445D03*
G54D13*
X194291Y8439D03*
Y35998D03*
G54D14*
X183661Y12376D03*
Y32061D03*
G54D15*
G01X-197602Y-37633D02*
X274898D01*
Y-137633D01*
X-200102D01*
Y-37633D01*
X-197602D01*
G01X-200102Y-117633D02*
X274898D01*
G01X-200102Y-97633D02*
X274898D01*
G01X-200102Y-77633D02*
X274898D01*
G01X-200102Y-57633D02*
X274898D01*
G54D16*
G01X20000Y121100D02*
Y125000D01*
G01D02*
Y128900D01*
G01X16100Y125000D02*
X20000D01*
G01D02*
X23900D01*
G01X98500Y76500D02*
X97000D01*
X96500Y77000D01*
X89000D01*
X88000Y76000D01*
Y75000D01*
X84500Y71500D01*
Y66932D01*
X82465Y64897D01*
G01X98500Y88500D02*
X97000Y87000D01*
X80000D01*
X79000Y86000D01*
X75000D01*
G01X76500Y94000D02*
X79000Y91500D01*
X97500D01*
X98500Y92500D01*
G01X183661Y8915D02*
Y12376D01*
G01D02*
Y15836D01*
G01X180791Y12376D02*
X183661D01*
G01D02*
X186532D01*
G01X183661Y28600D02*
Y32061D01*
G01D02*
Y35521D01*
G01X180791Y32061D02*
X183661D01*
G01D02*
X186532D01*
G01X190000Y131100D02*
Y135000D01*
G01D02*
Y138900D01*
G01X186100Y135000D02*
X190000D01*
G01D02*
X193900D01*
G54D17*
G01X-191552Y-131833D02*
Y-127833D01*
X-189652D01*
G01X-190352Y-129766D02*
X-191552D01*
G01X-187602Y-127833D02*
X-186402D01*
G01X-187002D02*
Y-131833D01*
G01X-187602D02*
X-186402D01*
G01X-184402Y-127833D02*
Y-131833D01*
X-182402D01*
G01X-181102D02*
Y-127833D01*
X-179802Y-131166D01*
X-178502Y-127833D01*
Y-131833D01*
G01X-173602Y-127833D02*
Y-131833D01*
X-171602D01*
G01X-170252D02*
X-169002Y-127833D01*
X-167752Y-131833D01*
G01X-168202Y-130433D02*
X-169802D01*
G01X-165402Y-131833D02*
Y-130033D01*
X-166402Y-127833D01*
G01X-164402D02*
X-165402Y-130033D01*
G01X-160802Y-131833D02*
X-162802D01*
Y-127833D01*
X-160802D01*
G01X-161602Y-129766D02*
X-162802D01*
G01X-159202Y-131833D02*
Y-127833D01*
X-157952D01*
X-157552Y-128033D01*
X-157302Y-128300D01*
X-157202Y-128833D01*
X-157302Y-129366D01*
X-157602Y-129700D01*
X-157952Y-129900D01*
X-159202D01*
G01X-157952D02*
X-157202Y-131833D01*
G01X-154602Y-131966D02*
X-154702Y-131900D01*
Y-131766D01*
X-154602Y-131700D01*
X-154502Y-131766D01*
Y-131900D01*
X-154602Y-131966D01*
G01Y-130166D02*
X-154702Y-130100D01*
Y-129966D01*
X-154602Y-129900D01*
X-154502Y-129966D01*
Y-130100D01*
X-154602Y-130166D01*
G01X-191602Y-111833D02*
Y-107833D01*
X-190402D01*
X-190002Y-108033D01*
X-189702Y-108500D01*
X-189602Y-109033D01*
X-189702Y-109566D01*
X-189952Y-109966D01*
X-190402Y-110166D01*
X-191602D01*
G01X-188252Y-111833D02*
X-187002Y-107833D01*
X-185752Y-111833D01*
G01X-186202Y-110433D02*
X-187802D01*
G01X-184402Y-111833D02*
Y-107833D01*
X-183152D01*
X-182752Y-108033D01*
X-182502Y-108300D01*
X-182402Y-108833D01*
X-182502Y-109366D01*
X-182802Y-109700D01*
X-183152Y-109900D01*
X-184402D01*
G01X-183152D02*
X-182402Y-111833D01*
G01X-179802Y-107833D02*
Y-111833D01*
G01X-180952Y-107833D02*
X-178652D01*
G01X-173752Y-111833D02*
Y-107833D01*
X-171452Y-111833D01*
Y-107833D01*
G01X-169002Y-111833D02*
X-169402Y-111766D01*
X-169752Y-111500D01*
X-170052Y-111100D01*
X-170252Y-110633D01*
X-170352Y-110100D01*
Y-109566D01*
X-170252Y-109033D01*
X-170052Y-108566D01*
X-169752Y-108166D01*
X-169402Y-107900D01*
X-169002Y-107833D01*
X-168602Y-107900D01*
X-168252Y-108166D01*
X-167952Y-108566D01*
X-167752Y-109033D01*
X-167652Y-109566D01*
Y-110100D01*
X-167752Y-110633D01*
X-167952Y-111100D01*
X-168252Y-111500D01*
X-168602Y-111766D01*
X-169002Y-111833D01*
G01X-166302Y-111966D02*
X-164502Y-107833D01*
G01X-160702Y-108166D02*
X-161002Y-107966D01*
X-161352Y-107833D01*
X-161752D01*
X-162202Y-108033D01*
X-162552Y-108366D01*
X-162802Y-108766D01*
X-163002Y-109433D01*
X-163052Y-110033D01*
X-162952Y-110633D01*
X-162802Y-111033D01*
X-162502Y-111433D01*
X-162152Y-111700D01*
X-161802Y-111833D01*
X-161452D01*
X-161102Y-111700D01*
X-160802Y-111500D01*
X-160552Y-111233D01*
G01X-159452Y-111833D02*
X-158202Y-107833D01*
X-156952Y-111833D01*
G01X-157402Y-110433D02*
X-159002D01*
G01X-155602Y-111833D02*
Y-107833D01*
X-154352D01*
X-153952Y-108033D01*
X-153702Y-108300D01*
X-153602Y-108833D01*
X-153702Y-109366D01*
X-154002Y-109700D01*
X-154352Y-109900D01*
X-155602D01*
G01X-154352D02*
X-153602Y-111833D01*
G01X-152102D02*
Y-107833D01*
X-151102D01*
X-150702Y-108033D01*
X-150402Y-108300D01*
X-150152Y-108700D01*
X-149952Y-109166D01*
X-149902Y-109833D01*
X-149952Y-110500D01*
X-150152Y-110966D01*
X-150402Y-111366D01*
X-150702Y-111633D01*
X-151102Y-111833D01*
X-152102D01*
G01X-144802D02*
Y-107833D01*
X-143552D01*
X-143152Y-108033D01*
X-142902Y-108300D01*
X-142802Y-108833D01*
X-142902Y-109366D01*
X-143202Y-109700D01*
X-143552Y-109900D01*
X-144802D01*
G01X-143552D02*
X-142802Y-111833D01*
G01X-139202D02*
X-141202D01*
Y-107833D01*
X-139202D01*
G01X-140002Y-109766D02*
X-141202D01*
G01X-137552Y-111833D02*
Y-107833D01*
X-135652D01*
G01X-136352Y-109766D02*
X-137552D01*
G01X-133002Y-111966D02*
X-133102Y-111900D01*
Y-111766D01*
X-133002Y-111700D01*
X-132902Y-111766D01*
Y-111900D01*
X-133002Y-111966D01*
G01Y-110166D02*
X-133102Y-110100D01*
Y-109966D01*
X-133002Y-109900D01*
X-132902Y-109966D01*
Y-110100D01*
X-133002Y-110166D01*
G01X-191702Y-71833D02*
Y-67833D01*
X-190702D01*
X-190302Y-68033D01*
X-190002Y-68300D01*
X-189752Y-68700D01*
X-189552Y-69166D01*
X-189502Y-69833D01*
X-189552Y-70500D01*
X-189752Y-70966D01*
X-190002Y-71366D01*
X-190302Y-71633D01*
X-190702Y-71833D01*
X-191702D01*
G01X-188252D02*
X-187002Y-67833D01*
X-185752Y-71833D01*
G01X-186202Y-70433D02*
X-187802D01*
G01X-183402Y-67833D02*
Y-71833D01*
G01X-184552Y-67833D02*
X-182252D01*
G01X-178802Y-71833D02*
X-180802D01*
Y-67833D01*
X-178802D01*
G01X-179602Y-69766D02*
X-180802D01*
G01X-176202Y-71966D02*
X-176302Y-71900D01*
Y-71766D01*
X-176202Y-71700D01*
X-176102Y-71766D01*
Y-71900D01*
X-176202Y-71966D01*
G01Y-70166D02*
X-176302Y-70100D01*
Y-69966D01*
X-176202Y-69900D01*
X-176102Y-69966D01*
Y-70100D01*
X-176202Y-70166D01*
G01X-173602Y-71033D02*
X-173352Y-71433D01*
X-173052Y-71700D01*
X-172702Y-71833D01*
X-172302Y-71700D01*
X-172002Y-71433D01*
X-171702Y-71033D01*
X-171602Y-70500D01*
Y-67833D01*
G01X-170102D02*
Y-70700D01*
X-169902Y-71300D01*
X-169502Y-71700D01*
X-169002Y-71833D01*
X-168502Y-71700D01*
X-168102Y-71300D01*
X-167902Y-70700D01*
Y-67833D01*
G01X-166552Y-71833D02*
Y-67833D01*
X-164252Y-71833D01*
Y-67833D01*
G01X-160802Y-71833D02*
X-162802D01*
Y-67833D01*
X-160802D01*
G01X-161602Y-69766D02*
X-162802D01*
G01X-154602Y-67833D02*
X-155002Y-67966D01*
X-155302Y-68300D01*
X-155502Y-68700D01*
X-155652Y-69233D01*
X-155702Y-69833D01*
X-155652Y-70433D01*
X-155502Y-70966D01*
X-155302Y-71366D01*
X-155002Y-71700D01*
X-154602Y-71833D01*
X-154202Y-71700D01*
X-153902Y-71366D01*
X-153702Y-70966D01*
X-153552Y-70433D01*
X-153502Y-69833D01*
X-153552Y-69233D01*
X-153702Y-68700D01*
X-153902Y-68300D01*
X-154202Y-67966D01*
X-154602Y-67833D01*
G01X-152102Y-71233D02*
X-151802Y-71566D01*
X-151452Y-71766D01*
X-151002Y-71833D01*
X-150552Y-71700D01*
X-150202Y-71433D01*
X-149952Y-70966D01*
X-149902Y-70433D01*
X-150002Y-69900D01*
X-150252Y-69566D01*
X-150602Y-69300D01*
X-150952Y-69233D01*
X-151302Y-69300D01*
X-151752Y-69566D01*
X-151602Y-67833D01*
X-150252D01*
G01X-144752Y-68500D02*
X-144452Y-68100D01*
X-144102Y-67900D01*
X-143702Y-67833D01*
X-143202Y-67966D01*
X-142852Y-68300D01*
X-142752Y-68700D01*
X-142802Y-69100D01*
X-143002Y-69433D01*
X-144002Y-70100D01*
X-144452Y-70566D01*
X-144752Y-71233D01*
X-144852Y-71833D01*
X-142752D01*
G01X-140202Y-67833D02*
X-140602Y-67966D01*
X-140902Y-68300D01*
X-141102Y-68700D01*
X-141252Y-69233D01*
X-141302Y-69833D01*
X-141252Y-70433D01*
X-141102Y-70966D01*
X-140902Y-71366D01*
X-140602Y-71700D01*
X-140202Y-71833D01*
X-139802Y-71700D01*
X-139502Y-71366D01*
X-139302Y-70966D01*
X-139152Y-70433D01*
X-139102Y-69833D01*
X-139152Y-69233D01*
X-139302Y-68700D01*
X-139502Y-68300D01*
X-139802Y-67966D01*
X-140202Y-67833D01*
G01X-136602Y-71833D02*
Y-67833D01*
X-137202Y-68633D01*
G01Y-71833D02*
X-136002D01*
G01X-132402D02*
Y-67833D01*
X-134252Y-70700D01*
X-131752D01*
G01X-155002Y-91963D02*
Y-87963D01*
X-154002D01*
X-153602Y-88163D01*
X-153302Y-88430D01*
X-153052Y-88830D01*
X-152852Y-89296D01*
X-152802Y-89963D01*
X-152852Y-90630D01*
X-153052Y-91096D01*
X-153302Y-91496D01*
X-153602Y-91763D01*
X-154002Y-91963D01*
X-155002D01*
G01X-149302D02*
X-151302D01*
Y-87963D01*
X-149302D01*
G01X-150102Y-89896D02*
X-151302D01*
G01X-147752Y-91430D02*
X-147352Y-91763D01*
X-146902Y-91963D01*
X-146502D01*
X-146102Y-91763D01*
X-145802Y-91430D01*
X-145652Y-90963D01*
X-145752Y-90496D01*
X-146002Y-90096D01*
X-146452Y-89830D01*
X-147052Y-89696D01*
X-147402Y-89430D01*
X-147552Y-88963D01*
X-147452Y-88496D01*
X-147202Y-88163D01*
X-146852Y-87963D01*
X-146502D01*
X-146152Y-88096D01*
X-145852Y-88430D01*
G01X-143702Y-87963D02*
X-142502D01*
G01X-143102D02*
Y-91963D01*
G01X-143702D02*
X-142502D01*
G01X-139202Y-89963D02*
X-138202D01*
Y-91163D01*
X-138502Y-91563D01*
X-138852Y-91830D01*
X-139352Y-91963D01*
X-139852Y-91830D01*
X-140202Y-91563D01*
X-140502Y-91163D01*
X-140702Y-90696D01*
X-140802Y-90163D01*
Y-89696D01*
X-140702Y-89296D01*
X-140502Y-88830D01*
X-140202Y-88430D01*
X-139902Y-88163D01*
X-139502Y-87963D01*
X-139152D01*
X-138752Y-88096D01*
X-138452Y-88363D01*
G01X-137052Y-91963D02*
Y-87963D01*
X-134752Y-91963D01*
Y-87963D01*
G01X-131302Y-91963D02*
X-133302D01*
Y-87963D01*
X-131302D01*
G01X-132102Y-89896D02*
X-133302D01*
G01X-129802Y-91963D02*
Y-87963D01*
X-128802D01*
X-128402Y-88163D01*
X-128102Y-88430D01*
X-127852Y-88830D01*
X-127652Y-89296D01*
X-127602Y-89963D01*
X-127652Y-90630D01*
X-127852Y-91096D01*
X-128102Y-91496D01*
X-128402Y-91763D01*
X-128802Y-91963D01*
X-129802D01*
G01X-121102Y-89830D02*
X-120902Y-89630D01*
X-120752Y-89296D01*
X-120652Y-88830D01*
X-120752Y-88430D01*
X-120952Y-88163D01*
X-121302Y-87963D01*
X-122652D01*
Y-91963D01*
X-121002D01*
X-120652Y-91696D01*
X-120452Y-91296D01*
X-120352Y-90830D01*
X-120452Y-90363D01*
X-120752Y-89963D01*
X-121102Y-89830D01*
X-122652D01*
G01X-117902Y-91963D02*
Y-90163D01*
X-118902Y-87963D01*
G01X-116902D02*
X-117902Y-90163D01*
G01X-114302Y-92096D02*
X-114402Y-92030D01*
Y-91896D01*
X-114302Y-91830D01*
X-114202Y-91896D01*
Y-92030D01*
X-114302Y-92096D01*
G01Y-90296D02*
X-114402Y-90230D01*
Y-90096D01*
X-114302Y-90030D01*
X-114202Y-90096D01*
Y-90230D01*
X-114302Y-90296D01*
G01X-80250Y-128333D02*
Y-132333D01*
X-78250D01*
G01X-76900D02*
X-75650Y-128333D01*
X-74400Y-132333D01*
G01X-74850Y-130933D02*
X-76450D01*
G01X-72050Y-132333D02*
Y-130533D01*
X-73050Y-128333D01*
G01X-71050D02*
X-72050Y-130533D01*
G01X-67450Y-132333D02*
X-69450D01*
Y-128333D01*
X-67450D01*
G01X-68250Y-130267D02*
X-69450D01*
G01X-65850Y-132333D02*
Y-128333D01*
X-64600D01*
X-64200Y-128533D01*
X-63950Y-128800D01*
X-63850Y-129333D01*
X-63950Y-129867D01*
X-64250Y-130200D01*
X-64600Y-130400D01*
X-65850D01*
G01X-64600D02*
X-63850Y-132333D01*
G01X-58600Y-129000D02*
X-58300Y-128600D01*
X-57950Y-128400D01*
X-57550Y-128333D01*
X-57050Y-128467D01*
X-56700Y-128800D01*
X-56600Y-129200D01*
X-56650Y-129600D01*
X-56850Y-129933D01*
X-57850Y-130600D01*
X-58300Y-131067D01*
X-58600Y-131733D01*
X-58700Y-132333D01*
X-56600D01*
G01X-50700Y-133667D02*
X-51200Y-133000D01*
X-51450Y-132333D01*
Y-129667D01*
X-51200Y-129000D01*
X-50700Y-128333D01*
G01X-46550Y-130333D02*
X-45550D01*
Y-131533D01*
X-45850Y-131933D01*
X-46200Y-132200D01*
X-46700Y-132333D01*
X-47200Y-132200D01*
X-47550Y-131933D01*
X-47850Y-131533D01*
X-48050Y-131067D01*
X-48150Y-130533D01*
Y-130067D01*
X-48050Y-129667D01*
X-47850Y-129200D01*
X-47550Y-128800D01*
X-47250Y-128533D01*
X-46850Y-128333D01*
X-46500D01*
X-46100Y-128467D01*
X-45800Y-128733D01*
G01X-44400Y-132333D02*
Y-128333D01*
X-42100Y-132333D01*
Y-128333D01*
G01X-40750Y-132333D02*
Y-128333D01*
X-39750D01*
X-39350Y-128533D01*
X-39050Y-128800D01*
X-38800Y-129200D01*
X-38600Y-129667D01*
X-38550Y-130333D01*
X-38600Y-131000D01*
X-38800Y-131467D01*
X-39050Y-131867D01*
X-39350Y-132133D01*
X-39750Y-132333D01*
X-40750D01*
G01X-35800Y-133667D02*
X-35300Y-133000D01*
X-35050Y-132333D01*
Y-129667D01*
X-35300Y-129000D01*
X-35800Y-128333D01*
G01X-71250Y-88734D02*
Y-92734D01*
G01X-72400Y-88734D02*
X-70100D01*
G01X-66650Y-92734D02*
X-68650D01*
Y-88734D01*
X-66650D01*
G01X-67450Y-90667D02*
X-68650D01*
G01X-65100Y-92201D02*
X-64700Y-92534D01*
X-64250Y-92734D01*
X-63850D01*
X-63450Y-92534D01*
X-63150Y-92201D01*
X-63000Y-91734D01*
X-63100Y-91267D01*
X-63350Y-90867D01*
X-63800Y-90601D01*
X-64400Y-90467D01*
X-64750Y-90201D01*
X-64900Y-89734D01*
X-64800Y-89267D01*
X-64550Y-88934D01*
X-64200Y-88734D01*
X-63850D01*
X-63500Y-88867D01*
X-63200Y-89201D01*
G01X-61500Y-92201D02*
X-61100Y-92534D01*
X-60650Y-92734D01*
X-60250D01*
X-59850Y-92534D01*
X-59550Y-92201D01*
X-59400Y-91734D01*
X-59500Y-91267D01*
X-59750Y-90867D01*
X-60200Y-90601D01*
X-60800Y-90467D01*
X-61150Y-90201D01*
X-61300Y-89734D01*
X-61200Y-89267D01*
X-60950Y-88934D01*
X-60600Y-88734D01*
X-60250D01*
X-59900Y-88867D01*
X-59600Y-89201D01*
G01X-56850Y-92734D02*
X-57250Y-92667D01*
X-57600Y-92401D01*
X-57900Y-92001D01*
X-58100Y-91534D01*
X-58200Y-91001D01*
Y-90467D01*
X-58100Y-89934D01*
X-57900Y-89467D01*
X-57600Y-89067D01*
X-57250Y-88801D01*
X-56850Y-88734D01*
X-56450Y-88801D01*
X-56100Y-89067D01*
X-55800Y-89467D01*
X-55600Y-89934D01*
X-55500Y-90467D01*
Y-91001D01*
X-55600Y-91534D01*
X-55800Y-92001D01*
X-56100Y-92401D01*
X-56450Y-92667D01*
X-56850Y-92734D01*
G01X-54250Y-88734D02*
Y-92734D01*
X-52250D01*
G01X-50900Y-88734D02*
X-49650Y-92734D01*
X-48400Y-88734D01*
G01X-45050Y-92734D02*
X-47050D01*
Y-88734D01*
X-45050D01*
G01X-45850Y-90667D02*
X-47050D01*
G01X-74802Y-49296D02*
X-75102Y-49096D01*
X-75452Y-48963D01*
X-75852D01*
X-76302Y-49163D01*
X-76652Y-49496D01*
X-76902Y-49896D01*
X-77102Y-50563D01*
X-77152Y-51163D01*
X-77052Y-51763D01*
X-76902Y-52163D01*
X-76602Y-52563D01*
X-76252Y-52830D01*
X-75902Y-52963D01*
X-75552D01*
X-75202Y-52830D01*
X-74902Y-52630D01*
X-74652Y-52363D01*
G01X-72302Y-52963D02*
X-72702Y-52896D01*
X-73052Y-52630D01*
X-73352Y-52230D01*
X-73552Y-51763D01*
X-73652Y-51230D01*
Y-50696D01*
X-73552Y-50163D01*
X-73352Y-49696D01*
X-73052Y-49296D01*
X-72702Y-49030D01*
X-72302Y-48963D01*
X-71902Y-49030D01*
X-71552Y-49296D01*
X-71252Y-49696D01*
X-71052Y-50163D01*
X-70952Y-50696D01*
Y-51230D01*
X-71052Y-51763D01*
X-71252Y-52230D01*
X-71552Y-52630D01*
X-71902Y-52896D01*
X-72302Y-52963D01*
G01X-70002D02*
Y-48963D01*
X-68702Y-52296D01*
X-67402Y-48963D01*
Y-52963D01*
G01X-66102D02*
Y-48963D01*
X-64902D01*
X-64502Y-49163D01*
X-64202Y-49630D01*
X-64102Y-50163D01*
X-64202Y-50696D01*
X-64452Y-51096D01*
X-64902Y-51296D01*
X-66102D01*
G01X-62752Y-52963D02*
X-61502Y-48963D01*
X-60252Y-52963D01*
G01X-60702Y-51563D02*
X-62302D01*
G01X-59052Y-52963D02*
Y-48963D01*
X-56752Y-52963D01*
Y-48963D01*
G01X-54302Y-52963D02*
Y-51163D01*
X-55302Y-48963D01*
G01X-53302D02*
X-54302Y-51163D01*
G01X-48252Y-52963D02*
Y-48963D01*
X-45952Y-52963D01*
Y-48963D01*
G01X-44752Y-52963D02*
X-43502Y-48963D01*
X-42252Y-52963D01*
G01X-42702Y-51563D02*
X-44302D01*
G01X-41202Y-52963D02*
Y-48963D01*
X-39902Y-52296D01*
X-38602Y-48963D01*
Y-52963D01*
G01X-35302D02*
X-37302D01*
Y-48963D01*
X-35302D01*
G01X-36102Y-50896D02*
X-37302D01*
G01X-29102Y-53096D02*
X-29202Y-53030D01*
Y-52896D01*
X-29102Y-52830D01*
X-29002Y-52896D01*
Y-53030D01*
X-29102Y-53096D01*
G01Y-51296D02*
X-29202Y-51230D01*
Y-51096D01*
X-29102Y-51030D01*
X-29002Y-51096D01*
Y-51230D01*
X-29102Y-51296D01*
G01X-21902Y-48963D02*
Y-52963D01*
G01X-23052Y-48963D02*
X-20752D01*
G01X-17302Y-52963D02*
X-19302D01*
Y-48963D01*
X-17302D01*
G01X-18102Y-50896D02*
X-19302D01*
G01X-15752Y-52963D02*
X-13652Y-48963D01*
G01X-15752D02*
X-13652Y-52963D01*
G01X-12352D02*
X-11102Y-48963D01*
X-9852Y-52963D01*
G01X-10302Y-51563D02*
X-11902D01*
G01X-8552Y-52430D02*
X-8152Y-52763D01*
X-7702Y-52963D01*
X-7302D01*
X-6902Y-52763D01*
X-6602Y-52430D01*
X-6452Y-51963D01*
X-6552Y-51496D01*
X-6802Y-51096D01*
X-7252Y-50830D01*
X-7852Y-50696D01*
X-8202Y-50430D01*
X-8352Y-49963D01*
X-8252Y-49496D01*
X-8002Y-49163D01*
X-7652Y-48963D01*
X-7302D01*
X-6952Y-49096D01*
X-6652Y-49430D01*
G01X-902Y-48963D02*
X298D01*
G01X-302D02*
Y-52963D01*
G01X-902D02*
X298D01*
G01X2148D02*
Y-48963D01*
X4448Y-52963D01*
Y-48963D01*
G01X5848Y-52430D02*
X6248Y-52763D01*
X6698Y-52963D01*
X7098D01*
X7498Y-52763D01*
X7798Y-52430D01*
X7948Y-51963D01*
X7848Y-51496D01*
X7598Y-51096D01*
X7148Y-50830D01*
X6548Y-50696D01*
X6198Y-50430D01*
X6048Y-49963D01*
X6148Y-49496D01*
X6398Y-49163D01*
X6748Y-48963D01*
X7098D01*
X7448Y-49096D01*
X7748Y-49430D01*
G01X10498Y-48963D02*
Y-52963D01*
G01X9348Y-48963D02*
X11648D01*
G01X13098Y-52963D02*
Y-48963D01*
X14348D01*
X14748Y-49163D01*
X14998Y-49430D01*
X15098Y-49963D01*
X14998Y-50496D01*
X14698Y-50830D01*
X14348Y-51030D01*
X13098D01*
G01X14348D02*
X15098Y-52963D01*
G01X16598Y-48963D02*
Y-51830D01*
X16798Y-52430D01*
X17198Y-52830D01*
X17698Y-52963D01*
X18198Y-52830D01*
X18598Y-52430D01*
X18798Y-51830D01*
Y-48963D01*
G01X19998Y-52963D02*
Y-48963D01*
X21298Y-52296D01*
X22598Y-48963D01*
Y-52963D01*
G01X25898D02*
X23898D01*
Y-48963D01*
X25898D01*
G01X25098Y-50896D02*
X23898D01*
G01X27348Y-52963D02*
Y-48963D01*
X29648Y-52963D01*
Y-48963D01*
G01X32098D02*
Y-52963D01*
G01X30948Y-48963D02*
X33248D01*
G01X34648Y-52430D02*
X35048Y-52763D01*
X35498Y-52963D01*
X35898D01*
X36298Y-52763D01*
X36598Y-52430D01*
X36748Y-51963D01*
X36648Y-51496D01*
X36398Y-51096D01*
X35948Y-50830D01*
X35348Y-50696D01*
X34998Y-50430D01*
X34848Y-49963D01*
X34948Y-49496D01*
X35198Y-49163D01*
X35548Y-48963D01*
X35898D01*
X36248Y-49096D01*
X36548Y-49430D01*
G01X-23150Y-108667D02*
X-23450Y-108467D01*
X-23800Y-108333D01*
X-24200D01*
X-24650Y-108533D01*
X-25000Y-108867D01*
X-25250Y-109267D01*
X-25450Y-109933D01*
X-25500Y-110533D01*
X-25400Y-111133D01*
X-25250Y-111533D01*
X-24950Y-111933D01*
X-24600Y-112200D01*
X-24250Y-112333D01*
X-23900D01*
X-23550Y-112200D01*
X-23250Y-112000D01*
X-23000Y-111733D01*
G01X-19550Y-108667D02*
X-19850Y-108467D01*
X-20200Y-108333D01*
X-20600D01*
X-21050Y-108533D01*
X-21400Y-108867D01*
X-21650Y-109267D01*
X-21850Y-109933D01*
X-21900Y-110533D01*
X-21800Y-111133D01*
X-21650Y-111533D01*
X-21350Y-111933D01*
X-21000Y-112200D01*
X-20650Y-112333D01*
X-20300D01*
X-19950Y-112200D01*
X-19650Y-112000D01*
X-19400Y-111733D01*
G01X-18150Y-111533D02*
X-17850Y-112000D01*
X-17450Y-112267D01*
X-17000Y-112333D01*
X-16600Y-112267D01*
X-16200Y-111933D01*
X-15950Y-111533D01*
X-15900Y-111133D01*
X-16000Y-110667D01*
X-16350Y-110333D01*
X-16700Y-110200D01*
X-17150D01*
G01X-16700D02*
X-16400Y-110000D01*
X-16150Y-109667D01*
X-16050Y-109267D01*
X-16150Y-108867D01*
X-16400Y-108533D01*
X-16850Y-108333D01*
X-17300Y-108400D01*
X-17750Y-108667D01*
G01X-13450Y-112333D02*
Y-108333D01*
X-14050Y-109133D01*
G01Y-112333D02*
X-12850D01*
G01X-9850Y-108333D02*
X-10250Y-108467D01*
X-10550Y-108800D01*
X-10750Y-109200D01*
X-10900Y-109733D01*
X-10950Y-110333D01*
X-10900Y-110933D01*
X-10750Y-111467D01*
X-10550Y-111867D01*
X-10250Y-112200D01*
X-9850Y-112333D01*
X-9450Y-112200D01*
X-9150Y-111867D01*
X-8950Y-111467D01*
X-8800Y-110933D01*
X-8750Y-110333D01*
X-8800Y-109733D01*
X-8950Y-109200D01*
X-9150Y-108800D01*
X-9450Y-108467D01*
X-9850Y-108333D01*
G01X-6250D02*
X-6650Y-108467D01*
X-6950Y-108800D01*
X-7150Y-109200D01*
X-7300Y-109733D01*
X-7350Y-110333D01*
X-7300Y-110933D01*
X-7150Y-111467D01*
X-6950Y-111867D01*
X-6650Y-112200D01*
X-6250Y-112333D01*
X-5850Y-112200D01*
X-5550Y-111867D01*
X-5350Y-111467D01*
X-5200Y-110933D01*
X-5150Y-110333D01*
X-5200Y-109733D01*
X-5350Y-109200D01*
X-5550Y-108800D01*
X-5850Y-108467D01*
X-6250Y-108333D01*
G01X-2250Y-110200D02*
X-2050Y-110000D01*
X-1900Y-109667D01*
X-1800Y-109200D01*
X-1900Y-108800D01*
X-2100Y-108533D01*
X-2450Y-108333D01*
X-3800D01*
Y-112333D01*
X-2150D01*
X-1800Y-112067D01*
X-1600Y-111667D01*
X-1500Y-111200D01*
X-1600Y-110733D01*
X-1900Y-110333D01*
X-2250Y-110200D01*
X-3800D01*
G01X950Y-112333D02*
X550Y-112267D01*
X200Y-112000D01*
X-100Y-111600D01*
X-300Y-111133D01*
X-400Y-110600D01*
Y-110067D01*
X-300Y-109533D01*
X-100Y-109067D01*
X200Y-108667D01*
X550Y-108400D01*
X950Y-108333D01*
X1350Y-108400D01*
X1700Y-108667D01*
X2000Y-109067D01*
X2200Y-109533D01*
X2300Y-110067D01*
Y-110600D01*
X2200Y-111133D01*
X2000Y-111600D01*
X1700Y-112000D01*
X1350Y-112267D01*
X950Y-112333D01*
G01X4550D02*
X4150Y-112267D01*
X3800Y-112000D01*
X3500Y-111600D01*
X3300Y-111133D01*
X3200Y-110600D01*
Y-110067D01*
X3300Y-109533D01*
X3500Y-109067D01*
X3800Y-108667D01*
X4150Y-108400D01*
X4550Y-108333D01*
X4950Y-108400D01*
X5300Y-108667D01*
X5600Y-109067D01*
X5800Y-109533D01*
X5900Y-110067D01*
Y-110600D01*
X5800Y-111133D01*
X5600Y-111600D01*
X5300Y-112000D01*
X4950Y-112267D01*
X4550Y-112333D01*
G01X7100Y-111800D02*
X7500Y-112133D01*
X7950Y-112333D01*
X8350D01*
X8750Y-112133D01*
X9050Y-111800D01*
X9200Y-111333D01*
X9100Y-110867D01*
X8850Y-110467D01*
X8400Y-110200D01*
X7800Y-110067D01*
X7450Y-109800D01*
X7300Y-109333D01*
X7400Y-108867D01*
X7650Y-108533D01*
X8000Y-108333D01*
X8350D01*
X8700Y-108467D01*
X9000Y-108800D01*
G01X11750Y-108333D02*
Y-112333D01*
G01X10600Y-108333D02*
X12900D01*
G01X75750Y-72033D02*
X76000Y-72433D01*
X76300Y-72700D01*
X76650Y-72833D01*
X77050Y-72700D01*
X77350Y-72433D01*
X77650Y-72033D01*
X77750Y-71500D01*
Y-68833D01*
G01X80350Y-72833D02*
X79950Y-72767D01*
X79600Y-72500D01*
X79300Y-72100D01*
X79100Y-71633D01*
X79000Y-71100D01*
Y-70567D01*
X79100Y-70033D01*
X79300Y-69567D01*
X79600Y-69167D01*
X79950Y-68900D01*
X80350Y-68833D01*
X80750Y-68900D01*
X81100Y-69167D01*
X81400Y-69567D01*
X81600Y-70033D01*
X81700Y-70567D01*
Y-71100D01*
X81600Y-71633D01*
X81400Y-72100D01*
X81100Y-72500D01*
X80750Y-72767D01*
X80350Y-72833D01*
G01X84350Y-70700D02*
X84550Y-70500D01*
X84700Y-70167D01*
X84800Y-69700D01*
X84700Y-69300D01*
X84500Y-69033D01*
X84150Y-68833D01*
X82800D01*
Y-72833D01*
X84450D01*
X84800Y-72567D01*
X85000Y-72167D01*
X85100Y-71700D01*
X85000Y-71233D01*
X84700Y-70833D01*
X84350Y-70700D01*
X82800D01*
G01X90000Y-72833D02*
Y-68833D01*
X92300Y-72833D01*
Y-68833D01*
G01X93650D02*
Y-71700D01*
X93850Y-72300D01*
X94250Y-72700D01*
X94750Y-72833D01*
X95250Y-72700D01*
X95650Y-72300D01*
X95850Y-71700D01*
Y-68833D01*
G01X97050Y-72833D02*
Y-68833D01*
X98350Y-72167D01*
X99650Y-68833D01*
Y-72833D01*
G01X102350Y-70700D02*
X102550Y-70500D01*
X102700Y-70167D01*
X102800Y-69700D01*
X102700Y-69300D01*
X102500Y-69033D01*
X102150Y-68833D01*
X100800D01*
Y-72833D01*
X102450D01*
X102800Y-72567D01*
X103000Y-72167D01*
X103100Y-71700D01*
X103000Y-71233D01*
X102700Y-70833D01*
X102350Y-70700D01*
X100800D01*
G01X106550Y-72833D02*
X104550D01*
Y-68833D01*
X106550D01*
G01X105750Y-70767D02*
X104550D01*
G01X108150Y-72833D02*
Y-68833D01*
X109400D01*
X109800Y-69033D01*
X110050Y-69300D01*
X110150Y-69833D01*
X110050Y-70367D01*
X109750Y-70700D01*
X109400Y-70900D01*
X108150D01*
G01X109400D02*
X110150Y-72833D01*
G01X112750Y-72967D02*
X112650Y-72900D01*
Y-72767D01*
X112750Y-72700D01*
X112850Y-72767D01*
Y-72900D01*
X112750Y-72967D01*
G01Y-71167D02*
X112650Y-71100D01*
Y-70967D01*
X112750Y-70900D01*
X112850Y-70967D01*
Y-71100D01*
X112750Y-71167D01*
G01X116350Y-68833D02*
Y-72833D01*
G01X115200Y-68833D02*
X117500D01*
G01X118900Y-72300D02*
X119300Y-72633D01*
X119750Y-72833D01*
X120150D01*
X120550Y-72633D01*
X120850Y-72300D01*
X121000Y-71833D01*
X120900Y-71367D01*
X120650Y-70967D01*
X120200Y-70700D01*
X119600Y-70567D01*
X119250Y-70300D01*
X119100Y-69833D01*
X119200Y-69367D01*
X119450Y-69033D01*
X119800Y-68833D01*
X120150D01*
X120500Y-68967D01*
X120800Y-69300D01*
G01X123550Y-72833D02*
Y-68833D01*
X122950Y-69633D01*
G01Y-72833D02*
X124150D01*
G01X127150Y-68833D02*
X126750Y-68967D01*
X126450Y-69300D01*
X126250Y-69700D01*
X126100Y-70233D01*
X126050Y-70833D01*
X126100Y-71433D01*
X126250Y-71967D01*
X126450Y-72367D01*
X126750Y-72700D01*
X127150Y-72833D01*
X127550Y-72700D01*
X127850Y-72367D01*
X128050Y-71967D01*
X128200Y-71433D01*
X128250Y-70833D01*
X128200Y-70233D01*
X128050Y-69700D01*
X127850Y-69300D01*
X127550Y-68967D01*
X127150Y-68833D01*
G01X130750Y-72833D02*
Y-68833D01*
X130150Y-69633D01*
G01Y-72833D02*
X131350D01*
G01X134350Y-68833D02*
X133950Y-68967D01*
X133650Y-69300D01*
X133450Y-69700D01*
X133300Y-70233D01*
X133250Y-70833D01*
X133300Y-71433D01*
X133450Y-71967D01*
X133650Y-72367D01*
X133950Y-72700D01*
X134350Y-72833D01*
X134750Y-72700D01*
X135050Y-72367D01*
X135250Y-71967D01*
X135400Y-71433D01*
X135450Y-70833D01*
X135400Y-70233D01*
X135250Y-69700D01*
X135050Y-69300D01*
X134750Y-68967D01*
X134350Y-68833D01*
G01X138550Y-72833D02*
Y-68833D01*
X136700Y-71700D01*
X139200D01*
G01X140300Y-72833D02*
X141550Y-68833D01*
X142800Y-72833D01*
G01X142350Y-71433D02*
X140750D01*
G01X146250Y-69167D02*
X145950Y-68967D01*
X145600Y-68833D01*
X145200D01*
X144750Y-69033D01*
X144400Y-69367D01*
X144150Y-69767D01*
X143950Y-70433D01*
X143900Y-71033D01*
X144000Y-71633D01*
X144150Y-72033D01*
X144450Y-72433D01*
X144800Y-72700D01*
X145150Y-72833D01*
X145500D01*
X145850Y-72700D01*
X146150Y-72500D01*
X146400Y-72233D01*
G01X148750Y-68833D02*
X148350Y-68967D01*
X148050Y-69300D01*
X147850Y-69700D01*
X147700Y-70233D01*
X147650Y-70833D01*
X147700Y-71433D01*
X147850Y-71967D01*
X148050Y-72367D01*
X148350Y-72700D01*
X148750Y-72833D01*
X149150Y-72700D01*
X149450Y-72367D01*
X149650Y-71967D01*
X149800Y-71433D01*
X149850Y-70833D01*
X149800Y-70233D01*
X149650Y-69700D01*
X149450Y-69300D01*
X149150Y-68967D01*
X148750Y-68833D01*
G01X184750Y-112833D02*
Y-108833D01*
X186000D01*
X186400Y-109033D01*
X186650Y-109300D01*
X186750Y-109833D01*
X186650Y-110367D01*
X186350Y-110700D01*
X186000Y-110900D01*
X184750D01*
G01X186000D02*
X186750Y-112833D01*
G01X190350D02*
X188350D01*
Y-108833D01*
X190350D01*
G01X189550Y-110767D02*
X188350D01*
G01X191700Y-108833D02*
X192950Y-112833D01*
X194200Y-108833D01*
G01X199500Y-111500D02*
X200800D01*
G01X204350Y-112833D02*
Y-108833D01*
X202500Y-111700D01*
X205000D01*
G01X207350Y-112967D02*
X207250Y-112900D01*
Y-112767D01*
X207350Y-112700D01*
X207450Y-112767D01*
Y-112900D01*
X207350Y-112967D01*
G01X210950Y-108833D02*
X210550Y-108967D01*
X210250Y-109300D01*
X210050Y-109700D01*
X209900Y-110233D01*
X209850Y-110833D01*
X209900Y-111433D01*
X210050Y-111967D01*
X210250Y-112367D01*
X210550Y-112700D01*
X210950Y-112833D01*
X211350Y-112700D01*
X211650Y-112367D01*
X211850Y-111967D01*
X212000Y-111433D01*
X212050Y-110833D01*
X212000Y-110233D01*
X211850Y-109700D01*
X211650Y-109300D01*
X211350Y-108967D01*
X210950Y-108833D01*
M02*
