G04 ================== begin FILE IDENTIFICATION RECORD ==================*
G04 Layout Name:  CC3100BOOST_BRD_Rev4p0_20140605_16p3.brd*
G04 Film Name:    SPB.gbr*
G04 File Format:  Gerber RS274X*
G04 File Origin:  Cadence Allegro 16.3-S057*
G04 Origin Date:  Thu Jun 05 10:35:16 2014*
G04 *
G04 Layer:  DRAWING FORMAT/SPB*
G04 Layer:  PIN/PASTEMASK_BOTTOM*
G04 Layer:  PACKAGE GEOMETRY/PASTEMASK_BOTTOM*
G04 Layer:  DRAWING FORMAT/FILM_LABEL_OUTLINE*
G04 *
G04 Offset:    (0.0000 0.0000)*
G04 Mirror:    No*
G04 Mode:      Positive*
G04 Rotation:  0*
G04 FullContactRelief:  No*
G04 UndefLineWidth:     6.0000*
G04 ================== end FILE IDENTIFICATION RECORD ====================*
%FSLAX25Y25*MOIN*%
%IR0*IPPOS*OFA0.00000B0.00000*MIA0B0*SFA1.00000B1.00000*%
%ADD10C,.015*%
%ADD11C,.006*%
G75*
%LPD*%
G75*
G54D10*
G01X-197602Y-37633D02*
X274898D01*
Y-137633D01*
X-200102D01*
Y-37633D01*
X-197602D01*
G01X-200102Y-117633D02*
X274898D01*
G01X-200102Y-97633D02*
X274898D01*
G01X-200102Y-77633D02*
X274898D01*
G01X-200102Y-57633D02*
X274898D01*
G54D11*
G01X-191552Y-131833D02*
Y-127833D01*
X-189652D01*
G01X-190352Y-129766D02*
X-191552D01*
G01X-187602Y-127833D02*
X-186402D01*
G01X-187002D02*
Y-131833D01*
G01X-187602D02*
X-186402D01*
G01X-184402Y-127833D02*
Y-131833D01*
X-182402D01*
G01X-181102D02*
Y-127833D01*
X-179802Y-131166D01*
X-178502Y-127833D01*
Y-131833D01*
G01X-173602Y-127833D02*
Y-131833D01*
X-171602D01*
G01X-170252D02*
X-169002Y-127833D01*
X-167752Y-131833D01*
G01X-168202Y-130433D02*
X-169802D01*
G01X-165402Y-131833D02*
Y-130033D01*
X-166402Y-127833D01*
G01X-164402D02*
X-165402Y-130033D01*
G01X-160802Y-131833D02*
X-162802D01*
Y-127833D01*
X-160802D01*
G01X-161602Y-129766D02*
X-162802D01*
G01X-159202Y-131833D02*
Y-127833D01*
X-157952D01*
X-157552Y-128033D01*
X-157302Y-128300D01*
X-157202Y-128833D01*
X-157302Y-129366D01*
X-157602Y-129700D01*
X-157952Y-129900D01*
X-159202D01*
G01X-157952D02*
X-157202Y-131833D01*
G01X-154602Y-131966D02*
X-154702Y-131900D01*
Y-131766D01*
X-154602Y-131700D01*
X-154502Y-131766D01*
Y-131900D01*
X-154602Y-131966D01*
G01Y-130166D02*
X-154702Y-130100D01*
Y-129966D01*
X-154602Y-129900D01*
X-154502Y-129966D01*
Y-130100D01*
X-154602Y-130166D01*
G01X-191602Y-111833D02*
Y-107833D01*
X-190402D01*
X-190002Y-108033D01*
X-189702Y-108500D01*
X-189602Y-109033D01*
X-189702Y-109566D01*
X-189952Y-109966D01*
X-190402Y-110166D01*
X-191602D01*
G01X-188252Y-111833D02*
X-187002Y-107833D01*
X-185752Y-111833D01*
G01X-186202Y-110433D02*
X-187802D01*
G01X-184402Y-111833D02*
Y-107833D01*
X-183152D01*
X-182752Y-108033D01*
X-182502Y-108300D01*
X-182402Y-108833D01*
X-182502Y-109366D01*
X-182802Y-109700D01*
X-183152Y-109900D01*
X-184402D01*
G01X-183152D02*
X-182402Y-111833D01*
G01X-179802Y-107833D02*
Y-111833D01*
G01X-180952Y-107833D02*
X-178652D01*
G01X-173752Y-111833D02*
Y-107833D01*
X-171452Y-111833D01*
Y-107833D01*
G01X-169002Y-111833D02*
X-169402Y-111766D01*
X-169752Y-111500D01*
X-170052Y-111100D01*
X-170252Y-110633D01*
X-170352Y-110100D01*
Y-109566D01*
X-170252Y-109033D01*
X-170052Y-108566D01*
X-169752Y-108166D01*
X-169402Y-107900D01*
X-169002Y-107833D01*
X-168602Y-107900D01*
X-168252Y-108166D01*
X-167952Y-108566D01*
X-167752Y-109033D01*
X-167652Y-109566D01*
Y-110100D01*
X-167752Y-110633D01*
X-167952Y-111100D01*
X-168252Y-111500D01*
X-168602Y-111766D01*
X-169002Y-111833D01*
G01X-166302Y-111966D02*
X-164502Y-107833D01*
G01X-160702Y-108166D02*
X-161002Y-107966D01*
X-161352Y-107833D01*
X-161752D01*
X-162202Y-108033D01*
X-162552Y-108366D01*
X-162802Y-108766D01*
X-163002Y-109433D01*
X-163052Y-110033D01*
X-162952Y-110633D01*
X-162802Y-111033D01*
X-162502Y-111433D01*
X-162152Y-111700D01*
X-161802Y-111833D01*
X-161452D01*
X-161102Y-111700D01*
X-160802Y-111500D01*
X-160552Y-111233D01*
G01X-159452Y-111833D02*
X-158202Y-107833D01*
X-156952Y-111833D01*
G01X-157402Y-110433D02*
X-159002D01*
G01X-155602Y-111833D02*
Y-107833D01*
X-154352D01*
X-153952Y-108033D01*
X-153702Y-108300D01*
X-153602Y-108833D01*
X-153702Y-109366D01*
X-154002Y-109700D01*
X-154352Y-109900D01*
X-155602D01*
G01X-154352D02*
X-153602Y-111833D01*
G01X-152102D02*
Y-107833D01*
X-151102D01*
X-150702Y-108033D01*
X-150402Y-108300D01*
X-150152Y-108700D01*
X-149952Y-109166D01*
X-149902Y-109833D01*
X-149952Y-110500D01*
X-150152Y-110966D01*
X-150402Y-111366D01*
X-150702Y-111633D01*
X-151102Y-111833D01*
X-152102D01*
G01X-144802D02*
Y-107833D01*
X-143552D01*
X-143152Y-108033D01*
X-142902Y-108300D01*
X-142802Y-108833D01*
X-142902Y-109366D01*
X-143202Y-109700D01*
X-143552Y-109900D01*
X-144802D01*
G01X-143552D02*
X-142802Y-111833D01*
G01X-139202D02*
X-141202D01*
Y-107833D01*
X-139202D01*
G01X-140002Y-109766D02*
X-141202D01*
G01X-137552Y-111833D02*
Y-107833D01*
X-135652D01*
G01X-136352Y-109766D02*
X-137552D01*
G01X-133002Y-111966D02*
X-133102Y-111900D01*
Y-111766D01*
X-133002Y-111700D01*
X-132902Y-111766D01*
Y-111900D01*
X-133002Y-111966D01*
G01Y-110166D02*
X-133102Y-110100D01*
Y-109966D01*
X-133002Y-109900D01*
X-132902Y-109966D01*
Y-110100D01*
X-133002Y-110166D01*
G01X-191702Y-71833D02*
Y-67833D01*
X-190702D01*
X-190302Y-68033D01*
X-190002Y-68300D01*
X-189752Y-68700D01*
X-189552Y-69166D01*
X-189502Y-69833D01*
X-189552Y-70500D01*
X-189752Y-70966D01*
X-190002Y-71366D01*
X-190302Y-71633D01*
X-190702Y-71833D01*
X-191702D01*
G01X-188252D02*
X-187002Y-67833D01*
X-185752Y-71833D01*
G01X-186202Y-70433D02*
X-187802D01*
G01X-183402Y-67833D02*
Y-71833D01*
G01X-184552Y-67833D02*
X-182252D01*
G01X-178802Y-71833D02*
X-180802D01*
Y-67833D01*
X-178802D01*
G01X-179602Y-69766D02*
X-180802D01*
G01X-176202Y-71966D02*
X-176302Y-71900D01*
Y-71766D01*
X-176202Y-71700D01*
X-176102Y-71766D01*
Y-71900D01*
X-176202Y-71966D01*
G01Y-70166D02*
X-176302Y-70100D01*
Y-69966D01*
X-176202Y-69900D01*
X-176102Y-69966D01*
Y-70100D01*
X-176202Y-70166D01*
G01X-173602Y-71033D02*
X-173352Y-71433D01*
X-173052Y-71700D01*
X-172702Y-71833D01*
X-172302Y-71700D01*
X-172002Y-71433D01*
X-171702Y-71033D01*
X-171602Y-70500D01*
Y-67833D01*
G01X-170102D02*
Y-70700D01*
X-169902Y-71300D01*
X-169502Y-71700D01*
X-169002Y-71833D01*
X-168502Y-71700D01*
X-168102Y-71300D01*
X-167902Y-70700D01*
Y-67833D01*
G01X-166552Y-71833D02*
Y-67833D01*
X-164252Y-71833D01*
Y-67833D01*
G01X-160802Y-71833D02*
X-162802D01*
Y-67833D01*
X-160802D01*
G01X-161602Y-69766D02*
X-162802D01*
G01X-154602Y-67833D02*
X-155002Y-67966D01*
X-155302Y-68300D01*
X-155502Y-68700D01*
X-155652Y-69233D01*
X-155702Y-69833D01*
X-155652Y-70433D01*
X-155502Y-70966D01*
X-155302Y-71366D01*
X-155002Y-71700D01*
X-154602Y-71833D01*
X-154202Y-71700D01*
X-153902Y-71366D01*
X-153702Y-70966D01*
X-153552Y-70433D01*
X-153502Y-69833D01*
X-153552Y-69233D01*
X-153702Y-68700D01*
X-153902Y-68300D01*
X-154202Y-67966D01*
X-154602Y-67833D01*
G01X-152102Y-71233D02*
X-151802Y-71566D01*
X-151452Y-71766D01*
X-151002Y-71833D01*
X-150552Y-71700D01*
X-150202Y-71433D01*
X-149952Y-70966D01*
X-149902Y-70433D01*
X-150002Y-69900D01*
X-150252Y-69566D01*
X-150602Y-69300D01*
X-150952Y-69233D01*
X-151302Y-69300D01*
X-151752Y-69566D01*
X-151602Y-67833D01*
X-150252D01*
G01X-144752Y-68500D02*
X-144452Y-68100D01*
X-144102Y-67900D01*
X-143702Y-67833D01*
X-143202Y-67966D01*
X-142852Y-68300D01*
X-142752Y-68700D01*
X-142802Y-69100D01*
X-143002Y-69433D01*
X-144002Y-70100D01*
X-144452Y-70566D01*
X-144752Y-71233D01*
X-144852Y-71833D01*
X-142752D01*
G01X-140202Y-67833D02*
X-140602Y-67966D01*
X-140902Y-68300D01*
X-141102Y-68700D01*
X-141252Y-69233D01*
X-141302Y-69833D01*
X-141252Y-70433D01*
X-141102Y-70966D01*
X-140902Y-71366D01*
X-140602Y-71700D01*
X-140202Y-71833D01*
X-139802Y-71700D01*
X-139502Y-71366D01*
X-139302Y-70966D01*
X-139152Y-70433D01*
X-139102Y-69833D01*
X-139152Y-69233D01*
X-139302Y-68700D01*
X-139502Y-68300D01*
X-139802Y-67966D01*
X-140202Y-67833D01*
G01X-136602Y-71833D02*
Y-67833D01*
X-137202Y-68633D01*
G01Y-71833D02*
X-136002D01*
G01X-132402D02*
Y-67833D01*
X-134252Y-70700D01*
X-131752D01*
G01X-155002Y-91963D02*
Y-87963D01*
X-154002D01*
X-153602Y-88163D01*
X-153302Y-88430D01*
X-153052Y-88830D01*
X-152852Y-89296D01*
X-152802Y-89963D01*
X-152852Y-90630D01*
X-153052Y-91096D01*
X-153302Y-91496D01*
X-153602Y-91763D01*
X-154002Y-91963D01*
X-155002D01*
G01X-149302D02*
X-151302D01*
Y-87963D01*
X-149302D01*
G01X-150102Y-89896D02*
X-151302D01*
G01X-147752Y-91430D02*
X-147352Y-91763D01*
X-146902Y-91963D01*
X-146502D01*
X-146102Y-91763D01*
X-145802Y-91430D01*
X-145652Y-90963D01*
X-145752Y-90496D01*
X-146002Y-90096D01*
X-146452Y-89830D01*
X-147052Y-89696D01*
X-147402Y-89430D01*
X-147552Y-88963D01*
X-147452Y-88496D01*
X-147202Y-88163D01*
X-146852Y-87963D01*
X-146502D01*
X-146152Y-88096D01*
X-145852Y-88430D01*
G01X-143702Y-87963D02*
X-142502D01*
G01X-143102D02*
Y-91963D01*
G01X-143702D02*
X-142502D01*
G01X-139202Y-89963D02*
X-138202D01*
Y-91163D01*
X-138502Y-91563D01*
X-138852Y-91830D01*
X-139352Y-91963D01*
X-139852Y-91830D01*
X-140202Y-91563D01*
X-140502Y-91163D01*
X-140702Y-90696D01*
X-140802Y-90163D01*
Y-89696D01*
X-140702Y-89296D01*
X-140502Y-88830D01*
X-140202Y-88430D01*
X-139902Y-88163D01*
X-139502Y-87963D01*
X-139152D01*
X-138752Y-88096D01*
X-138452Y-88363D01*
G01X-137052Y-91963D02*
Y-87963D01*
X-134752Y-91963D01*
Y-87963D01*
G01X-131302Y-91963D02*
X-133302D01*
Y-87963D01*
X-131302D01*
G01X-132102Y-89896D02*
X-133302D01*
G01X-129802Y-91963D02*
Y-87963D01*
X-128802D01*
X-128402Y-88163D01*
X-128102Y-88430D01*
X-127852Y-88830D01*
X-127652Y-89296D01*
X-127602Y-89963D01*
X-127652Y-90630D01*
X-127852Y-91096D01*
X-128102Y-91496D01*
X-128402Y-91763D01*
X-128802Y-91963D01*
X-129802D01*
G01X-121102Y-89830D02*
X-120902Y-89630D01*
X-120752Y-89296D01*
X-120652Y-88830D01*
X-120752Y-88430D01*
X-120952Y-88163D01*
X-121302Y-87963D01*
X-122652D01*
Y-91963D01*
X-121002D01*
X-120652Y-91696D01*
X-120452Y-91296D01*
X-120352Y-90830D01*
X-120452Y-90363D01*
X-120752Y-89963D01*
X-121102Y-89830D01*
X-122652D01*
G01X-117902Y-91963D02*
Y-90163D01*
X-118902Y-87963D01*
G01X-116902D02*
X-117902Y-90163D01*
G01X-114302Y-92096D02*
X-114402Y-92030D01*
Y-91896D01*
X-114302Y-91830D01*
X-114202Y-91896D01*
Y-92030D01*
X-114302Y-92096D01*
G01Y-90296D02*
X-114402Y-90230D01*
Y-90096D01*
X-114302Y-90030D01*
X-114202Y-90096D01*
Y-90230D01*
X-114302Y-90296D01*
G01X-83050Y-132467D02*
X-82650Y-132800D01*
X-82200Y-133000D01*
X-81800D01*
X-81400Y-132800D01*
X-81100Y-132467D01*
X-80950Y-132000D01*
X-81050Y-131533D01*
X-81300Y-131133D01*
X-81750Y-130867D01*
X-82350Y-130733D01*
X-82700Y-130467D01*
X-82850Y-130000D01*
X-82750Y-129533D01*
X-82500Y-129200D01*
X-82150Y-129000D01*
X-81800D01*
X-81450Y-129133D01*
X-81150Y-129467D01*
G01X-77400Y-133000D02*
X-79400D01*
Y-129000D01*
X-77400D01*
G01X-78200Y-130933D02*
X-79400D01*
G01X-73700Y-129333D02*
X-74000Y-129133D01*
X-74350Y-129000D01*
X-74750D01*
X-75200Y-129200D01*
X-75550Y-129533D01*
X-75800Y-129933D01*
X-76000Y-130600D01*
X-76050Y-131200D01*
X-75950Y-131800D01*
X-75800Y-132200D01*
X-75500Y-132600D01*
X-75150Y-132867D01*
X-74800Y-133000D01*
X-74450D01*
X-74100Y-132867D01*
X-73800Y-132667D01*
X-73550Y-132400D01*
G01X-71200Y-133000D02*
X-71600Y-132933D01*
X-71950Y-132667D01*
X-72250Y-132267D01*
X-72450Y-131800D01*
X-72550Y-131267D01*
Y-130733D01*
X-72450Y-130200D01*
X-72250Y-129733D01*
X-71950Y-129333D01*
X-71600Y-129067D01*
X-71200Y-129000D01*
X-70800Y-129067D01*
X-70450Y-129333D01*
X-70150Y-129733D01*
X-69950Y-130200D01*
X-69850Y-130733D01*
Y-131267D01*
X-69950Y-131800D01*
X-70150Y-132267D01*
X-70450Y-132667D01*
X-70800Y-132933D01*
X-71200Y-133000D01*
G01X-68750D02*
Y-129000D01*
X-66450Y-133000D01*
Y-129000D01*
G01X-65100Y-133000D02*
Y-129000D01*
X-64100D01*
X-63700Y-129200D01*
X-63400Y-129467D01*
X-63150Y-129867D01*
X-62950Y-130333D01*
X-62900Y-131000D01*
X-62950Y-131667D01*
X-63150Y-132133D01*
X-63400Y-132533D01*
X-63700Y-132800D01*
X-64100Y-133000D01*
X-65100D01*
G01X-61650D02*
X-60400Y-129000D01*
X-59150Y-133000D01*
G01X-59600Y-131600D02*
X-61200D01*
G01X-57800Y-133000D02*
Y-129000D01*
X-56550D01*
X-56150Y-129200D01*
X-55900Y-129467D01*
X-55800Y-130000D01*
X-55900Y-130533D01*
X-56200Y-130867D01*
X-56550Y-131067D01*
X-57800D01*
G01X-56550D02*
X-55800Y-133000D01*
G01X-53200D02*
Y-131200D01*
X-54200Y-129000D01*
G01X-52200D02*
X-53200Y-131200D01*
G01X-47050Y-132467D02*
X-46650Y-132800D01*
X-46200Y-133000D01*
X-45800D01*
X-45400Y-132800D01*
X-45100Y-132467D01*
X-44950Y-132000D01*
X-45050Y-131533D01*
X-45300Y-131133D01*
X-45750Y-130867D01*
X-46350Y-130733D01*
X-46700Y-130467D01*
X-46850Y-130000D01*
X-46750Y-129533D01*
X-46500Y-129200D01*
X-46150Y-129000D01*
X-45800D01*
X-45450Y-129133D01*
X-45150Y-129467D01*
G01X-43000Y-129000D02*
X-41800D01*
G01X-42400D02*
Y-133000D01*
G01X-43000D02*
X-41800D01*
G01X-39900D02*
Y-129000D01*
X-38900D01*
X-38500Y-129200D01*
X-38200Y-129467D01*
X-37950Y-129867D01*
X-37750Y-130333D01*
X-37700Y-131000D01*
X-37750Y-131667D01*
X-37950Y-132133D01*
X-38200Y-132533D01*
X-38500Y-132800D01*
X-38900Y-133000D01*
X-39900D01*
G01X-34200D02*
X-36200D01*
Y-129000D01*
X-34200D01*
G01X-35000Y-130933D02*
X-36200D01*
G01X-29000Y-133000D02*
Y-129000D01*
X-27800D01*
X-27400Y-129200D01*
X-27100Y-129667D01*
X-27000Y-130200D01*
X-27100Y-130733D01*
X-27350Y-131133D01*
X-27800Y-131333D01*
X-29000D01*
G01X-25650Y-133000D02*
X-24400Y-129000D01*
X-23150Y-133000D01*
G01X-23600Y-131600D02*
X-25200D01*
G01X-21850Y-132467D02*
X-21450Y-132800D01*
X-21000Y-133000D01*
X-20600D01*
X-20200Y-132800D01*
X-19900Y-132467D01*
X-19750Y-132000D01*
X-19850Y-131533D01*
X-20100Y-131133D01*
X-20550Y-130867D01*
X-21150Y-130733D01*
X-21500Y-130467D01*
X-21650Y-130000D01*
X-21550Y-129533D01*
X-21300Y-129200D01*
X-20950Y-129000D01*
X-20600D01*
X-20250Y-129133D01*
X-19950Y-129467D01*
G01X-17200Y-129000D02*
Y-133000D01*
G01X-18350Y-129000D02*
X-16050D01*
G01X-12600Y-133000D02*
X-14600D01*
Y-129000D01*
X-12600D01*
G01X-13400Y-130933D02*
X-14600D01*
G01X-7400Y-129000D02*
Y-133000D01*
X-5400D01*
G01X-4050D02*
X-2800Y-129000D01*
X-1550Y-133000D01*
G01X-2000Y-131600D02*
X-3600D01*
G01X800Y-133000D02*
Y-131200D01*
X-200Y-129000D01*
G01X1800D02*
X800Y-131200D01*
G01X5400Y-133000D02*
X3400D01*
Y-129000D01*
X5400D01*
G01X4600Y-130933D02*
X3400D01*
G01X7000Y-133000D02*
Y-129000D01*
X8250D01*
X8650Y-129200D01*
X8900Y-129467D01*
X9000Y-130000D01*
X8900Y-130533D01*
X8600Y-130867D01*
X8250Y-131067D01*
X7000D01*
G01X8250D02*
X9000Y-133000D01*
G01X-71250Y-88734D02*
Y-92734D01*
G01X-72400Y-88734D02*
X-70100D01*
G01X-66650Y-92734D02*
X-68650D01*
Y-88734D01*
X-66650D01*
G01X-67450Y-90667D02*
X-68650D01*
G01X-65100Y-92201D02*
X-64700Y-92534D01*
X-64250Y-92734D01*
X-63850D01*
X-63450Y-92534D01*
X-63150Y-92201D01*
X-63000Y-91734D01*
X-63100Y-91267D01*
X-63350Y-90867D01*
X-63800Y-90601D01*
X-64400Y-90467D01*
X-64750Y-90201D01*
X-64900Y-89734D01*
X-64800Y-89267D01*
X-64550Y-88934D01*
X-64200Y-88734D01*
X-63850D01*
X-63500Y-88867D01*
X-63200Y-89201D01*
G01X-61500Y-92201D02*
X-61100Y-92534D01*
X-60650Y-92734D01*
X-60250D01*
X-59850Y-92534D01*
X-59550Y-92201D01*
X-59400Y-91734D01*
X-59500Y-91267D01*
X-59750Y-90867D01*
X-60200Y-90601D01*
X-60800Y-90467D01*
X-61150Y-90201D01*
X-61300Y-89734D01*
X-61200Y-89267D01*
X-60950Y-88934D01*
X-60600Y-88734D01*
X-60250D01*
X-59900Y-88867D01*
X-59600Y-89201D01*
G01X-56850Y-92734D02*
X-57250Y-92667D01*
X-57600Y-92401D01*
X-57900Y-92001D01*
X-58100Y-91534D01*
X-58200Y-91001D01*
Y-90467D01*
X-58100Y-89934D01*
X-57900Y-89467D01*
X-57600Y-89067D01*
X-57250Y-88801D01*
X-56850Y-88734D01*
X-56450Y-88801D01*
X-56100Y-89067D01*
X-55800Y-89467D01*
X-55600Y-89934D01*
X-55500Y-90467D01*
Y-91001D01*
X-55600Y-91534D01*
X-55800Y-92001D01*
X-56100Y-92401D01*
X-56450Y-92667D01*
X-56850Y-92734D01*
G01X-54250Y-88734D02*
Y-92734D01*
X-52250D01*
G01X-50900Y-88734D02*
X-49650Y-92734D01*
X-48400Y-88734D01*
G01X-45050Y-92734D02*
X-47050D01*
Y-88734D01*
X-45050D01*
G01X-45850Y-90667D02*
X-47050D01*
G01X-74802Y-49296D02*
X-75102Y-49096D01*
X-75452Y-48963D01*
X-75852D01*
X-76302Y-49163D01*
X-76652Y-49496D01*
X-76902Y-49896D01*
X-77102Y-50563D01*
X-77152Y-51163D01*
X-77052Y-51763D01*
X-76902Y-52163D01*
X-76602Y-52563D01*
X-76252Y-52830D01*
X-75902Y-52963D01*
X-75552D01*
X-75202Y-52830D01*
X-74902Y-52630D01*
X-74652Y-52363D01*
G01X-72302Y-52963D02*
X-72702Y-52896D01*
X-73052Y-52630D01*
X-73352Y-52230D01*
X-73552Y-51763D01*
X-73652Y-51230D01*
Y-50696D01*
X-73552Y-50163D01*
X-73352Y-49696D01*
X-73052Y-49296D01*
X-72702Y-49030D01*
X-72302Y-48963D01*
X-71902Y-49030D01*
X-71552Y-49296D01*
X-71252Y-49696D01*
X-71052Y-50163D01*
X-70952Y-50696D01*
Y-51230D01*
X-71052Y-51763D01*
X-71252Y-52230D01*
X-71552Y-52630D01*
X-71902Y-52896D01*
X-72302Y-52963D01*
G01X-70002D02*
Y-48963D01*
X-68702Y-52296D01*
X-67402Y-48963D01*
Y-52963D01*
G01X-66102D02*
Y-48963D01*
X-64902D01*
X-64502Y-49163D01*
X-64202Y-49630D01*
X-64102Y-50163D01*
X-64202Y-50696D01*
X-64452Y-51096D01*
X-64902Y-51296D01*
X-66102D01*
G01X-62752Y-52963D02*
X-61502Y-48963D01*
X-60252Y-52963D01*
G01X-60702Y-51563D02*
X-62302D01*
G01X-59052Y-52963D02*
Y-48963D01*
X-56752Y-52963D01*
Y-48963D01*
G01X-54302Y-52963D02*
Y-51163D01*
X-55302Y-48963D01*
G01X-53302D02*
X-54302Y-51163D01*
G01X-48252Y-52963D02*
Y-48963D01*
X-45952Y-52963D01*
Y-48963D01*
G01X-44752Y-52963D02*
X-43502Y-48963D01*
X-42252Y-52963D01*
G01X-42702Y-51563D02*
X-44302D01*
G01X-41202Y-52963D02*
Y-48963D01*
X-39902Y-52296D01*
X-38602Y-48963D01*
Y-52963D01*
G01X-35302D02*
X-37302D01*
Y-48963D01*
X-35302D01*
G01X-36102Y-50896D02*
X-37302D01*
G01X-29102Y-53096D02*
X-29202Y-53030D01*
Y-52896D01*
X-29102Y-52830D01*
X-29002Y-52896D01*
Y-53030D01*
X-29102Y-53096D01*
G01Y-51296D02*
X-29202Y-51230D01*
Y-51096D01*
X-29102Y-51030D01*
X-29002Y-51096D01*
Y-51230D01*
X-29102Y-51296D01*
G01X-21902Y-48963D02*
Y-52963D01*
G01X-23052Y-48963D02*
X-20752D01*
G01X-17302Y-52963D02*
X-19302D01*
Y-48963D01*
X-17302D01*
G01X-18102Y-50896D02*
X-19302D01*
G01X-15752Y-52963D02*
X-13652Y-48963D01*
G01X-15752D02*
X-13652Y-52963D01*
G01X-12352D02*
X-11102Y-48963D01*
X-9852Y-52963D01*
G01X-10302Y-51563D02*
X-11902D01*
G01X-8552Y-52430D02*
X-8152Y-52763D01*
X-7702Y-52963D01*
X-7302D01*
X-6902Y-52763D01*
X-6602Y-52430D01*
X-6452Y-51963D01*
X-6552Y-51496D01*
X-6802Y-51096D01*
X-7252Y-50830D01*
X-7852Y-50696D01*
X-8202Y-50430D01*
X-8352Y-49963D01*
X-8252Y-49496D01*
X-8002Y-49163D01*
X-7652Y-48963D01*
X-7302D01*
X-6952Y-49096D01*
X-6652Y-49430D01*
G01X-902Y-48963D02*
X298D01*
G01X-302D02*
Y-52963D01*
G01X-902D02*
X298D01*
G01X2148D02*
Y-48963D01*
X4448Y-52963D01*
Y-48963D01*
G01X5848Y-52430D02*
X6248Y-52763D01*
X6698Y-52963D01*
X7098D01*
X7498Y-52763D01*
X7798Y-52430D01*
X7948Y-51963D01*
X7848Y-51496D01*
X7598Y-51096D01*
X7148Y-50830D01*
X6548Y-50696D01*
X6198Y-50430D01*
X6048Y-49963D01*
X6148Y-49496D01*
X6398Y-49163D01*
X6748Y-48963D01*
X7098D01*
X7448Y-49096D01*
X7748Y-49430D01*
G01X10498Y-48963D02*
Y-52963D01*
G01X9348Y-48963D02*
X11648D01*
G01X13098Y-52963D02*
Y-48963D01*
X14348D01*
X14748Y-49163D01*
X14998Y-49430D01*
X15098Y-49963D01*
X14998Y-50496D01*
X14698Y-50830D01*
X14348Y-51030D01*
X13098D01*
G01X14348D02*
X15098Y-52963D01*
G01X16598Y-48963D02*
Y-51830D01*
X16798Y-52430D01*
X17198Y-52830D01*
X17698Y-52963D01*
X18198Y-52830D01*
X18598Y-52430D01*
X18798Y-51830D01*
Y-48963D01*
G01X19998Y-52963D02*
Y-48963D01*
X21298Y-52296D01*
X22598Y-48963D01*
Y-52963D01*
G01X25898D02*
X23898D01*
Y-48963D01*
X25898D01*
G01X25098Y-50896D02*
X23898D01*
G01X27348Y-52963D02*
Y-48963D01*
X29648Y-52963D01*
Y-48963D01*
G01X32098D02*
Y-52963D01*
G01X30948Y-48963D02*
X33248D01*
G01X34648Y-52430D02*
X35048Y-52763D01*
X35498Y-52963D01*
X35898D01*
X36298Y-52763D01*
X36598Y-52430D01*
X36748Y-51963D01*
X36648Y-51496D01*
X36398Y-51096D01*
X35948Y-50830D01*
X35348Y-50696D01*
X34998Y-50430D01*
X34848Y-49963D01*
X34948Y-49496D01*
X35198Y-49163D01*
X35548Y-48963D01*
X35898D01*
X36248Y-49096D01*
X36548Y-49430D01*
G01X-23150Y-108667D02*
X-23450Y-108467D01*
X-23800Y-108333D01*
X-24200D01*
X-24650Y-108533D01*
X-25000Y-108867D01*
X-25250Y-109267D01*
X-25450Y-109933D01*
X-25500Y-110533D01*
X-25400Y-111133D01*
X-25250Y-111533D01*
X-24950Y-111933D01*
X-24600Y-112200D01*
X-24250Y-112333D01*
X-23900D01*
X-23550Y-112200D01*
X-23250Y-112000D01*
X-23000Y-111733D01*
G01X-19550Y-108667D02*
X-19850Y-108467D01*
X-20200Y-108333D01*
X-20600D01*
X-21050Y-108533D01*
X-21400Y-108867D01*
X-21650Y-109267D01*
X-21850Y-109933D01*
X-21900Y-110533D01*
X-21800Y-111133D01*
X-21650Y-111533D01*
X-21350Y-111933D01*
X-21000Y-112200D01*
X-20650Y-112333D01*
X-20300D01*
X-19950Y-112200D01*
X-19650Y-112000D01*
X-19400Y-111733D01*
G01X-18150Y-111533D02*
X-17850Y-112000D01*
X-17450Y-112267D01*
X-17000Y-112333D01*
X-16600Y-112267D01*
X-16200Y-111933D01*
X-15950Y-111533D01*
X-15900Y-111133D01*
X-16000Y-110667D01*
X-16350Y-110333D01*
X-16700Y-110200D01*
X-17150D01*
G01X-16700D02*
X-16400Y-110000D01*
X-16150Y-109667D01*
X-16050Y-109267D01*
X-16150Y-108867D01*
X-16400Y-108533D01*
X-16850Y-108333D01*
X-17300Y-108400D01*
X-17750Y-108667D01*
G01X-13450Y-112333D02*
Y-108333D01*
X-14050Y-109133D01*
G01Y-112333D02*
X-12850D01*
G01X-9850Y-108333D02*
X-10250Y-108467D01*
X-10550Y-108800D01*
X-10750Y-109200D01*
X-10900Y-109733D01*
X-10950Y-110333D01*
X-10900Y-110933D01*
X-10750Y-111467D01*
X-10550Y-111867D01*
X-10250Y-112200D01*
X-9850Y-112333D01*
X-9450Y-112200D01*
X-9150Y-111867D01*
X-8950Y-111467D01*
X-8800Y-110933D01*
X-8750Y-110333D01*
X-8800Y-109733D01*
X-8950Y-109200D01*
X-9150Y-108800D01*
X-9450Y-108467D01*
X-9850Y-108333D01*
G01X-6250D02*
X-6650Y-108467D01*
X-6950Y-108800D01*
X-7150Y-109200D01*
X-7300Y-109733D01*
X-7350Y-110333D01*
X-7300Y-110933D01*
X-7150Y-111467D01*
X-6950Y-111867D01*
X-6650Y-112200D01*
X-6250Y-112333D01*
X-5850Y-112200D01*
X-5550Y-111867D01*
X-5350Y-111467D01*
X-5200Y-110933D01*
X-5150Y-110333D01*
X-5200Y-109733D01*
X-5350Y-109200D01*
X-5550Y-108800D01*
X-5850Y-108467D01*
X-6250Y-108333D01*
G01X-2250Y-110200D02*
X-2050Y-110000D01*
X-1900Y-109667D01*
X-1800Y-109200D01*
X-1900Y-108800D01*
X-2100Y-108533D01*
X-2450Y-108333D01*
X-3800D01*
Y-112333D01*
X-2150D01*
X-1800Y-112067D01*
X-1600Y-111667D01*
X-1500Y-111200D01*
X-1600Y-110733D01*
X-1900Y-110333D01*
X-2250Y-110200D01*
X-3800D01*
G01X950Y-112333D02*
X550Y-112267D01*
X200Y-112000D01*
X-100Y-111600D01*
X-300Y-111133D01*
X-400Y-110600D01*
Y-110067D01*
X-300Y-109533D01*
X-100Y-109067D01*
X200Y-108667D01*
X550Y-108400D01*
X950Y-108333D01*
X1350Y-108400D01*
X1700Y-108667D01*
X2000Y-109067D01*
X2200Y-109533D01*
X2300Y-110067D01*
Y-110600D01*
X2200Y-111133D01*
X2000Y-111600D01*
X1700Y-112000D01*
X1350Y-112267D01*
X950Y-112333D01*
G01X4550D02*
X4150Y-112267D01*
X3800Y-112000D01*
X3500Y-111600D01*
X3300Y-111133D01*
X3200Y-110600D01*
Y-110067D01*
X3300Y-109533D01*
X3500Y-109067D01*
X3800Y-108667D01*
X4150Y-108400D01*
X4550Y-108333D01*
X4950Y-108400D01*
X5300Y-108667D01*
X5600Y-109067D01*
X5800Y-109533D01*
X5900Y-110067D01*
Y-110600D01*
X5800Y-111133D01*
X5600Y-111600D01*
X5300Y-112000D01*
X4950Y-112267D01*
X4550Y-112333D01*
G01X7100Y-111800D02*
X7500Y-112133D01*
X7950Y-112333D01*
X8350D01*
X8750Y-112133D01*
X9050Y-111800D01*
X9200Y-111333D01*
X9100Y-110867D01*
X8850Y-110467D01*
X8400Y-110200D01*
X7800Y-110067D01*
X7450Y-109800D01*
X7300Y-109333D01*
X7400Y-108867D01*
X7650Y-108533D01*
X8000Y-108333D01*
X8350D01*
X8700Y-108467D01*
X9000Y-108800D01*
G01X11750Y-108333D02*
Y-112333D01*
G01X10600Y-108333D02*
X12900D01*
G01X75750Y-72033D02*
X76000Y-72433D01*
X76300Y-72700D01*
X76650Y-72833D01*
X77050Y-72700D01*
X77350Y-72433D01*
X77650Y-72033D01*
X77750Y-71500D01*
Y-68833D01*
G01X80350Y-72833D02*
X79950Y-72767D01*
X79600Y-72500D01*
X79300Y-72100D01*
X79100Y-71633D01*
X79000Y-71100D01*
Y-70567D01*
X79100Y-70033D01*
X79300Y-69567D01*
X79600Y-69167D01*
X79950Y-68900D01*
X80350Y-68833D01*
X80750Y-68900D01*
X81100Y-69167D01*
X81400Y-69567D01*
X81600Y-70033D01*
X81700Y-70567D01*
Y-71100D01*
X81600Y-71633D01*
X81400Y-72100D01*
X81100Y-72500D01*
X80750Y-72767D01*
X80350Y-72833D01*
G01X84350Y-70700D02*
X84550Y-70500D01*
X84700Y-70167D01*
X84800Y-69700D01*
X84700Y-69300D01*
X84500Y-69033D01*
X84150Y-68833D01*
X82800D01*
Y-72833D01*
X84450D01*
X84800Y-72567D01*
X85000Y-72167D01*
X85100Y-71700D01*
X85000Y-71233D01*
X84700Y-70833D01*
X84350Y-70700D01*
X82800D01*
G01X90000Y-72833D02*
Y-68833D01*
X92300Y-72833D01*
Y-68833D01*
G01X93650D02*
Y-71700D01*
X93850Y-72300D01*
X94250Y-72700D01*
X94750Y-72833D01*
X95250Y-72700D01*
X95650Y-72300D01*
X95850Y-71700D01*
Y-68833D01*
G01X97050Y-72833D02*
Y-68833D01*
X98350Y-72167D01*
X99650Y-68833D01*
Y-72833D01*
G01X102350Y-70700D02*
X102550Y-70500D01*
X102700Y-70167D01*
X102800Y-69700D01*
X102700Y-69300D01*
X102500Y-69033D01*
X102150Y-68833D01*
X100800D01*
Y-72833D01*
X102450D01*
X102800Y-72567D01*
X103000Y-72167D01*
X103100Y-71700D01*
X103000Y-71233D01*
X102700Y-70833D01*
X102350Y-70700D01*
X100800D01*
G01X106550Y-72833D02*
X104550D01*
Y-68833D01*
X106550D01*
G01X105750Y-70767D02*
X104550D01*
G01X108150Y-72833D02*
Y-68833D01*
X109400D01*
X109800Y-69033D01*
X110050Y-69300D01*
X110150Y-69833D01*
X110050Y-70367D01*
X109750Y-70700D01*
X109400Y-70900D01*
X108150D01*
G01X109400D02*
X110150Y-72833D01*
G01X112750Y-72967D02*
X112650Y-72900D01*
Y-72767D01*
X112750Y-72700D01*
X112850Y-72767D01*
Y-72900D01*
X112750Y-72967D01*
G01Y-71167D02*
X112650Y-71100D01*
Y-70967D01*
X112750Y-70900D01*
X112850Y-70967D01*
Y-71100D01*
X112750Y-71167D01*
G01X116350Y-68833D02*
Y-72833D01*
G01X115200Y-68833D02*
X117500D01*
G01X118900Y-72300D02*
X119300Y-72633D01*
X119750Y-72833D01*
X120150D01*
X120550Y-72633D01*
X120850Y-72300D01*
X121000Y-71833D01*
X120900Y-71367D01*
X120650Y-70967D01*
X120200Y-70700D01*
X119600Y-70567D01*
X119250Y-70300D01*
X119100Y-69833D01*
X119200Y-69367D01*
X119450Y-69033D01*
X119800Y-68833D01*
X120150D01*
X120500Y-68967D01*
X120800Y-69300D01*
G01X123550Y-72833D02*
Y-68833D01*
X122950Y-69633D01*
G01Y-72833D02*
X124150D01*
G01X127150Y-68833D02*
X126750Y-68967D01*
X126450Y-69300D01*
X126250Y-69700D01*
X126100Y-70233D01*
X126050Y-70833D01*
X126100Y-71433D01*
X126250Y-71967D01*
X126450Y-72367D01*
X126750Y-72700D01*
X127150Y-72833D01*
X127550Y-72700D01*
X127850Y-72367D01*
X128050Y-71967D01*
X128200Y-71433D01*
X128250Y-70833D01*
X128200Y-70233D01*
X128050Y-69700D01*
X127850Y-69300D01*
X127550Y-68967D01*
X127150Y-68833D01*
G01X130750Y-72833D02*
Y-68833D01*
X130150Y-69633D01*
G01Y-72833D02*
X131350D01*
G01X134350Y-68833D02*
X133950Y-68967D01*
X133650Y-69300D01*
X133450Y-69700D01*
X133300Y-70233D01*
X133250Y-70833D01*
X133300Y-71433D01*
X133450Y-71967D01*
X133650Y-72367D01*
X133950Y-72700D01*
X134350Y-72833D01*
X134750Y-72700D01*
X135050Y-72367D01*
X135250Y-71967D01*
X135400Y-71433D01*
X135450Y-70833D01*
X135400Y-70233D01*
X135250Y-69700D01*
X135050Y-69300D01*
X134750Y-68967D01*
X134350Y-68833D01*
G01X138550Y-72833D02*
Y-68833D01*
X136700Y-71700D01*
X139200D01*
G01X140300Y-72833D02*
X141550Y-68833D01*
X142800Y-72833D01*
G01X142350Y-71433D02*
X140750D01*
G01X146250Y-69167D02*
X145950Y-68967D01*
X145600Y-68833D01*
X145200D01*
X144750Y-69033D01*
X144400Y-69367D01*
X144150Y-69767D01*
X143950Y-70433D01*
X143900Y-71033D01*
X144000Y-71633D01*
X144150Y-72033D01*
X144450Y-72433D01*
X144800Y-72700D01*
X145150Y-72833D01*
X145500D01*
X145850Y-72700D01*
X146150Y-72500D01*
X146400Y-72233D01*
G01X148750Y-68833D02*
X148350Y-68967D01*
X148050Y-69300D01*
X147850Y-69700D01*
X147700Y-70233D01*
X147650Y-70833D01*
X147700Y-71433D01*
X147850Y-71967D01*
X148050Y-72367D01*
X148350Y-72700D01*
X148750Y-72833D01*
X149150Y-72700D01*
X149450Y-72367D01*
X149650Y-71967D01*
X149800Y-71433D01*
X149850Y-70833D01*
X149800Y-70233D01*
X149650Y-69700D01*
X149450Y-69300D01*
X149150Y-68967D01*
X148750Y-68833D01*
G01X184750Y-112833D02*
Y-108833D01*
X186000D01*
X186400Y-109033D01*
X186650Y-109300D01*
X186750Y-109833D01*
X186650Y-110367D01*
X186350Y-110700D01*
X186000Y-110900D01*
X184750D01*
G01X186000D02*
X186750Y-112833D01*
G01X190350D02*
X188350D01*
Y-108833D01*
X190350D01*
G01X189550Y-110767D02*
X188350D01*
G01X191700Y-108833D02*
X192950Y-112833D01*
X194200Y-108833D01*
G01X199500Y-111500D02*
X200800D01*
G01X204350Y-112833D02*
Y-108833D01*
X202500Y-111700D01*
X205000D01*
G01X207350Y-112967D02*
X207250Y-112900D01*
Y-112767D01*
X207350Y-112700D01*
X207450Y-112767D01*
Y-112900D01*
X207350Y-112967D01*
G01X210950Y-108833D02*
X210550Y-108967D01*
X210250Y-109300D01*
X210050Y-109700D01*
X209900Y-110233D01*
X209850Y-110833D01*
X209900Y-111433D01*
X210050Y-111967D01*
X210250Y-112367D01*
X210550Y-112700D01*
X210950Y-112833D01*
X211350Y-112700D01*
X211650Y-112367D01*
X211850Y-111967D01*
X212000Y-111433D01*
X212050Y-110833D01*
X212000Y-110233D01*
X211850Y-109700D01*
X211650Y-109300D01*
X211350Y-108967D01*
X210950Y-108833D01*
M02*
