\relax 
\providecommand\hyper@newdestlabel[2]{}
\providecommand\HyperFirstAtBeginDocument{\AtBeginDocument}
\HyperFirstAtBeginDocument{\ifx\hyper@anchor\@undefined
\global\let\oldcontentsline\contentsline
\gdef\contentsline#1#2#3#4{\oldcontentsline{#1}{#2}{#3}}
\global\let\oldnewlabel\newlabel
\gdef\newlabel#1#2{\newlabelxx{#1}#2}
\gdef\newlabelxx#1#2#3#4#5#6{\oldnewlabel{#1}{{#2}{#3}}}
\AtEndDocument{\ifx\hyper@anchor\@undefined
\let\contentsline\oldcontentsline
\let\newlabel\oldnewlabel
\fi}
\fi}
\global\let\hyper@last\relax 
\gdef\HyperFirstAtBeginDocument#1{#1}
\providecommand\HyField@AuxAddToFields[1]{}
\providecommand\HyField@AuxAddToCoFields[2]{}
\citation{7_kb.rspca.org.au_2014}
\@writefile{toc}{\contentsline {section}{List of Figures}{3}{section*.2}}
\@writefile{toc}{\contentsline {section}{\numberline {1}Introduction}{4}{section.1}}
\@writefile{toc}{\contentsline {section}{\numberline {2}Explanation of Product and Design Concept}{5}{section.2}}
\citation{5_smith_2014}
\@writefile{lof}{\contentsline {figure}{\numberline {2.1}{\ignorespaces \textit  {\relax \fontsize  {10.95}{13.6}\selectfont  \abovedisplayskip 11\p@ plus3\p@ minus6\p@ \abovedisplayshortskip \z@ plus3\p@ \belowdisplayshortskip 6.5\p@ plus3.5\p@ minus3\p@ \def \leftmargin \leftmargini \topsep \z@ \parsep \parskip \itemsep \z@ {\leftmargin \leftmargini \topsep 9\p@ plus3\p@ minus5\p@ \parsep 4.5\p@ plus2\p@ minus\p@ \itemsep \parsep }\belowdisplayskip \abovedisplayskip {Block Diagram of all the subsystems in the design for this product.}}\relax }}{6}{figure.caption.3}}
\providecommand*\caption@xref[2]{\@setref\relax\@undefined{#1}}
\newlabel{OverallArchitecture}{{2.1}{6}{\textit {\small {Block Diagram of all the subsystems in the design for this product.}}\relax }{figure.caption.3}{}}
\citation{7_kb.rspca.org.au_2014}
\citation{6_abs.gov.au_2007}
\@writefile{toc}{\contentsline {section}{\numberline {3}Market analysis}{7}{section.3}}
\@writefile{lof}{\contentsline {figure}{\numberline {3.1}{\ignorespaces \textit  {\relax \fontsize  {10.95}{13.6}\selectfont  \abovedisplayskip 11\p@ plus3\p@ minus6\p@ \abovedisplayshortskip \z@ plus3\p@ \belowdisplayshortskip 6.5\p@ plus3.5\p@ minus3\p@ \def \leftmargin \leftmargini \topsep \z@ \parsep \parskip \itemsep \z@ {\leftmargin \leftmargini \topsep 9\p@ plus3\p@ minus5\p@ \parsep 4.5\p@ plus2\p@ minus\p@ \itemsep \parsep }\belowdisplayskip \abovedisplayskip {A breakdown of pet owner's feeding schedules.}}\relax }}{8}{figure.caption.4}}
\newlabel{FeedSchedule1}{{3.1}{8}{\textit {\small {A breakdown of pet owner's feeding schedules.}}\relax }{figure.caption.4}{}}
\@writefile{lof}{\contentsline {figure}{\numberline {3.2}{\ignorespaces \textit  {\relax \fontsize  {10.95}{13.6}\selectfont  \abovedisplayskip 11\p@ plus3\p@ minus6\p@ \abovedisplayshortskip \z@ plus3\p@ \belowdisplayshortskip 6.5\p@ plus3.5\p@ minus3\p@ \def \leftmargin \leftmargini \topsep \z@ \parsep \parskip \itemsep \z@ {\leftmargin \leftmargini \topsep 9\p@ plus3\p@ minus5\p@ \parsep 4.5\p@ plus2\p@ minus\p@ \itemsep \parsep }\belowdisplayskip \abovedisplayskip {A breakdown of pet owner's travel habits.}}\relax }}{8}{figure.caption.5}}
\newlabel{TravelHabits1}{{3.2}{8}{\textit {\small {A breakdown of pet owner's travel habits.}}\relax }{figure.caption.5}{}}
\@writefile{lof}{\contentsline {figure}{\numberline {3.3}{\ignorespaces \textit  {\relax \fontsize  {10.95}{13.6}\selectfont  \abovedisplayskip 11\p@ plus3\p@ minus6\p@ \abovedisplayshortskip \z@ plus3\p@ \belowdisplayshortskip 6.5\p@ plus3.5\p@ minus3\p@ \def \leftmargin \leftmargini \topsep \z@ \parsep \parskip \itemsep \z@ {\leftmargin \leftmargini \topsep 9\p@ plus3\p@ minus5\p@ \parsep 4.5\p@ plus2\p@ minus\p@ \itemsep \parsep }\belowdisplayskip \abovedisplayskip {Detailed look at pricing.}}\relax }}{9}{figure.caption.6}}
\newlabel{CostSelection1}{{3.3}{9}{\textit {\small {Detailed look at pricing.}}\relax }{figure.caption.6}{}}
\citation{1_petnet.io_2015}
\citation{kantar_wordpanel}
\citation{4_feed_and_go_2015}
\citation{2_australia_2015}
\@writefile{lof}{\contentsline {figure}{\numberline {3.4}{\ignorespaces \textit  {\relax \fontsize  {10.95}{13.6}\selectfont  \abovedisplayskip 11\p@ plus3\p@ minus6\p@ \abovedisplayshortskip \z@ plus3\p@ \belowdisplayshortskip 6.5\p@ plus3.5\p@ minus3\p@ \def \leftmargin \leftmargini \topsep \z@ \parsep \parskip \itemsep \z@ {\leftmargin \leftmargini \topsep 9\p@ plus3\p@ minus5\p@ \parsep 4.5\p@ plus2\p@ minus\p@ \itemsep \parsep }\belowdisplayskip \abovedisplayskip {Pet owner attitudes toward pet diet.}}\relax }}{10}{figure.caption.7}}
\newlabel{DietImp1}{{3.4}{10}{\textit {\small {Pet owner attitudes toward pet diet.}}\relax }{figure.caption.7}{}}
\citation{1_interlink_electronics}
\@writefile{toc}{\contentsline {section}{\numberline {4}Detailed Design and Technical Specifications}{11}{section.4}}
\@writefile{toc}{\contentsline {subsection}{\numberline {4.1}Principle of Operation}{11}{subsection.4.1}}
\@writefile{toc}{\contentsline {subsection}{\numberline {4.2}Subsystem Design}{11}{subsection.4.2}}
\citation{3_software-dl.ti.com_2015}
\@writefile{toc}{\contentsline {subsubsection}{\numberline {4.2.1}Microprocessor Subsystem Selection and Design}{12}{subsubsection.4.2.1}}
\citation{2_ti.com_2015}
\citation{4_ti.com_2015}
\citation{4_ti.com_2015}
\@writefile{lof}{\contentsline {figure}{\numberline {4.2.1.1}{\ignorespaces \textit  {\relax \fontsize  {10.95}{13.6}\selectfont  \abovedisplayskip 11\p@ plus3\p@ minus6\p@ \abovedisplayshortskip \z@ plus3\p@ \belowdisplayshortskip 6.5\p@ plus3.5\p@ minus3\p@ \def \leftmargin \leftmargini \topsep \z@ \parsep \parskip \itemsep \z@ {\leftmargin \leftmargini \topsep 9\p@ plus3\p@ minus5\p@ \parsep 4.5\p@ plus2\p@ minus\p@ \itemsep \parsep }\belowdisplayskip \abovedisplayskip {A High Level Diagram of the software used to perform the necessary functions}}\relax }}{13}{figure.caption.8}}
\newlabel{SoftwareDiagram}{{4.2.1.1}{13}{\textit {\small {A High Level Diagram of the software used to perform the necessary functions}}\relax }{figure.caption.8}{}}
\citation{1_interlink_electronics}
\citation{1_interlink_electronics}
\citation{5_ti.com_2015}
\@writefile{toc}{\contentsline {subsubsection}{\numberline {4.2.2}Internet Connectivity Subsystem Selection}{14}{subsubsection.4.2.2}}
\@writefile{toc}{\contentsline {subsubsection}{\numberline {4.2.3}Quantity Detection Subsystem Design}{14}{subsubsection.4.2.3}}
\@writefile{lof}{\contentsline {figure}{\numberline {4.2.3.1}{\ignorespaces \textit  {\relax \fontsize  {10.95}{13.6}\selectfont  \abovedisplayskip 11\p@ plus3\p@ minus6\p@ \abovedisplayshortskip \z@ plus3\p@ \belowdisplayshortskip 6.5\p@ plus3.5\p@ minus3\p@ \def \leftmargin \leftmargini \topsep \z@ \parsep \parskip \itemsep \z@ {\leftmargin \leftmargini \topsep 9\p@ plus3\p@ minus5\p@ \parsep 4.5\p@ plus2\p@ minus\p@ \itemsep \parsep }\belowdisplayskip \abovedisplayskip {A diagram of the circuit used to measure mass}}\relax }}{14}{figure.caption.9}}
\newlabel{FSRcircuit}{{4.2.3.1}{14}{\textit {\small {A diagram of the circuit used to measure mass}}\relax }{figure.caption.9}{}}
\citation{1_interlink_electronics}
\citation{1_interlink_electronics}
\@writefile{lof}{\contentsline {figure}{\numberline {4.2.3.2}{\ignorespaces \textit  {\relax \fontsize  {10.95}{13.6}\selectfont  \abovedisplayskip 11\p@ plus3\p@ minus6\p@ \abovedisplayshortskip \z@ plus3\p@ \belowdisplayshortskip 6.5\p@ plus3.5\p@ minus3\p@ \def \leftmargin \leftmargini \topsep \z@ \parsep \parskip \itemsep \z@ {\leftmargin \leftmargini \topsep 9\p@ plus3\p@ minus5\p@ \parsep 4.5\p@ plus2\p@ minus\p@ \itemsep \parsep }\belowdisplayskip \abovedisplayskip {A graph displaying the relationship between force applied on and the resistance of the FSR}}\relax }}{15}{figure.caption.10}}
\newlabel{FSRgraph}{{4.2.3.2}{15}{\textit {\small {A graph displaying the relationship between force applied on and the resistance of the FSR}}\relax }{figure.caption.10}{}}
\@writefile{toc}{\contentsline {subsubsection}{\numberline {4.2.4}Dispenser Subsystem Design}{15}{subsubsection.4.2.4}}
\citation{6_adafruit.com_2015}
\@writefile{lof}{\contentsline {figure}{\numberline {4.2.4.1}{\ignorespaces \textit  {\relax \fontsize  {10.95}{13.6}\selectfont  \abovedisplayskip 11\p@ plus3\p@ minus6\p@ \abovedisplayshortskip \z@ plus3\p@ \belowdisplayshortskip 6.5\p@ plus3.5\p@ minus3\p@ \def \leftmargin \leftmargini \topsep \z@ \parsep \parskip \itemsep \z@ {\leftmargin \leftmargini \topsep 9\p@ plus3\p@ minus5\p@ \parsep 4.5\p@ plus2\p@ minus\p@ \itemsep \parsep }\belowdisplayskip \abovedisplayskip {A photograph of the dispenser attached to a desk.}}\relax }}{16}{figure.caption.11}}
\newlabel{Bucket}{{4.2.4.1}{16}{\textit {\small {A photograph of the dispenser attached to a desk.}}\relax }{figure.caption.11}{}}
\@writefile{toc}{\contentsline {subsubsection}{\numberline {4.2.5}Power Subsystem Design}{16}{subsubsection.4.2.5}}
\@writefile{lof}{\contentsline {figure}{\numberline {4.2.5.1}{\ignorespaces \textit  {\relax \fontsize  {10.95}{13.6}\selectfont  \abovedisplayskip 11\p@ plus3\p@ minus6\p@ \abovedisplayshortskip \z@ plus3\p@ \belowdisplayshortskip 6.5\p@ plus3.5\p@ minus3\p@ \def \leftmargin \leftmargini \topsep \z@ \parsep \parskip \itemsep \z@ {\leftmargin \leftmargini \topsep 9\p@ plus3\p@ minus5\p@ \parsep 4.5\p@ plus2\p@ minus\p@ \itemsep \parsep }\belowdisplayskip \abovedisplayskip {The circuit used to provide power to all the other subsystems}}\relax }}{17}{figure.caption.12}}
\newlabel{PowerDiagram}{{4.2.5.1}{17}{\textit {\small {The circuit used to provide power to all the other subsystems}}\relax }{figure.caption.12}{}}
\@writefile{toc}{\contentsline {subsubsection}{\numberline {4.2.6}Website Design}{17}{subsubsection.4.2.6}}
\@writefile{toc}{\contentsline {subsection}{\numberline {4.3}PCB Design}{18}{subsection.4.3}}
\@writefile{lof}{\contentsline {figure}{\numberline {4.3.1}{\ignorespaces \textit  {\relax \fontsize  {10.95}{13.6}\selectfont  \abovedisplayskip 11\p@ plus3\p@ minus6\p@ \abovedisplayshortskip \z@ plus3\p@ \belowdisplayshortskip 6.5\p@ plus3.5\p@ minus3\p@ \def \leftmargin \leftmargini \topsep \z@ \parsep \parskip \itemsep \z@ {\leftmargin \leftmargini \topsep 9\p@ plus3\p@ minus5\p@ \parsep 4.5\p@ plus2\p@ minus\p@ \itemsep \parsep }\belowdisplayskip \abovedisplayskip {An image of our completed PCB}}\relax }}{18}{figure.caption.13}}
\newlabel{PCBshot}{{4.3.1}{18}{\textit {\small {An image of our completed PCB}}\relax }{figure.caption.13}{}}
\@writefile{toc}{\contentsline {subsection}{\numberline {4.4}Technical Specifications}{18}{subsection.4.4}}
\@writefile{toc}{\contentsline {subsection}{\numberline {4.5}Bill of Materials}{19}{subsection.4.5}}
\@writefile{lot}{\contentsline {table}{\numberline {4.5.1}{\ignorespaces MCU Bill of Materials\relax }}{20}{table.caption.14}}
\newlabel{table: MCU_BOM}{{4.5.1}{20}{MCU Bill of Materials\relax }{table.caption.14}{}}
\@writefile{lot}{\contentsline {table}{\numberline {4.5.2}{\ignorespaces Power Subsystem BOM\relax }}{20}{table.caption.15}}
\newlabel{table: POW_BOM}{{4.5.2}{20}{Power Subsystem BOM\relax }{table.caption.15}{}}
\@writefile{lot}{\contentsline {table}{\numberline {4.5.3}{\ignorespaces Quantity Detection Subsystem BOM\relax }}{20}{table.caption.16}}
\newlabel{table: FSR_BOM}{{4.5.3}{20}{Quantity Detection Subsystem BOM\relax }{table.caption.16}{}}
\citation{1_taubman_2015}
\@writefile{toc}{\contentsline {section}{\numberline {5}Manufacturing Cost Estimates}{21}{section.5}}
\@writefile{lot}{\contentsline {table}{\numberline {5.1}{\ignorespaces MCU Components Costs\relax }}{21}{table.caption.17}}
\newlabel{table: MSP430_COST}{{5.1}{21}{MCU Components Costs\relax }{table.caption.17}{}}
\@writefile{lot}{\contentsline {table}{\numberline {5.2}{\ignorespaces Internet Subsystem Components Costs\relax }}{22}{table.caption.18}}
\newlabel{table: WIFI_COST}{{5.2}{22}{Internet Subsystem Components Costs\relax }{table.caption.18}{}}
\@writefile{lot}{\contentsline {table}{\numberline {5.3}{\ignorespaces Quantity Detection Subsystem Costs\relax }}{22}{table.caption.19}}
\newlabel{table: FSR_COST}{{5.3}{22}{Quantity Detection Subsystem Costs\relax }{table.caption.19}{}}
\@writefile{lot}{\contentsline {table}{\numberline {5.4}{\ignorespaces Power Subsystem BOM\relax }}{22}{table.caption.20}}
\newlabel{table: POW_COST}{{5.4}{22}{Power Subsystem BOM\relax }{table.caption.20}{}}
\citation{1_taubman_2015}
\citation{1_taubman_2015}
\citation{7_kb.rspca.org.au_2014}
\citation{8_abs.gov.au_2014}
\@writefile{toc}{\contentsline {section}{\numberline {6}Business Plan}{23}{section.6}}
\@writefile{lot}{\contentsline {table}{\numberline {6.1}{\ignorespaces Projected business plan\relax }}{23}{table.caption.21}}
\newlabel{table: BUSINESS_PLAN}{{6.1}{23}{Projected business plan\relax }{table.caption.21}{}}
\@writefile{toc}{\contentsline {section}{\numberline {7}Development Plan}{24}{section.7}}
\@writefile{lof}{\contentsline {figure}{\numberline {7.1}{\ignorespaces \textit  {\relax \fontsize  {10.95}{13.6}\selectfont  \abovedisplayskip 11\p@ plus3\p@ minus6\p@ \abovedisplayshortskip \z@ plus3\p@ \belowdisplayshortskip 6.5\p@ plus3.5\p@ minus3\p@ \def \leftmargin \leftmargini \topsep \z@ \parsep \parskip \itemsep \z@ {\leftmargin \leftmargini \topsep 9\p@ plus3\p@ minus5\p@ \parsep 4.5\p@ plus2\p@ minus\p@ \itemsep \parsep }\belowdisplayskip \abovedisplayskip {A Gantt Chart detailing our development plan}}\relax }}{24}{figure.caption.22}}
\newlabel{GANTT}{{7.1}{24}{\textit {\small {A Gantt Chart detailing our development plan}}\relax }{figure.caption.22}{}}
\bibstyle{ieeetr}
\bibdata{Report}
\bibcite{1_petnet.io_2015}{{1}{}{{}}{{}}}
\@writefile{toc}{\contentsline {section}{\numberline {8}Summary}{26}{section.8}}
\bibcite{kantar_wordpanel}{{2}{}{{}}{{}}}
\bibcite{4_feed_and_go_2015}{{3}{}{{}}{{}}}
\bibcite{2_australia_2015}{{4}{}{{}}{{}}}
\bibcite{5_smith_2014}{{5}{}{{}}{{}}}
\bibcite{7_kb.rspca.org.au_2014}{{6}{}{{}}{{}}}
\bibcite{6_abs.gov.au_2007}{{7}{}{{}}{{}}}
\bibcite{1_interlink_electronics}{{8}{}{{}}{{}}}
\bibcite{3_software-dl.ti.com_2015}{{9}{}{{}}{{}}}
\bibcite{2_ti.com_2015}{{10}{}{{}}{{}}}
\bibcite{4_ti.com_2015}{{11}{}{{}}{{}}}
\bibcite{5_ti.com_2015}{{12}{}{{}}{{}}}
\bibcite{6_adafruit.com_2015}{{13}{}{{}}{{}}}
\bibcite{1_taubman_2015}{{14}{}{{}}{{}}}
\bibcite{8_abs.gov.au_2014}{{15}{}{{}}{{}}}
\@writefile{toc}{\contentsline {section}{\numberline {9}Bibliography}{27}{section.9}}
\@writefile{toc}{\contentsline {section}{Appendix A: Requirements}{28}{section*.23}}
\@writefile{toc}{\contentsline {section}{Appendix B: Survey}{28}{section*.24}}
\@writefile{toc}{\contentsline {section}{Appendix C: CC3100-BOOST Bill of Materials}{37}{section*.25}}
\@writefile{toc}{\contentsline {section}{Appendix D: PCB Schematic}{39}{section*.26}}
\@writefile{toc}{\contentsline {section}{Appendix E: PCB Layout and Design}{40}{section*.27}}
\@writefile{toc}{\contentsline {section}{Appendix F: Advisory Board Minutes}{40}{section*.28}}
\providecommand\NAT@force@numbers{}\NAT@force@numbers
